<svg viewBox="0 0 255 670" fill="none" xmlns="http://www.w3.org/2000/svg">
<path opacity="0.15" fill-rule="evenodd" clip-rule="evenodd" d="M-194.356 464.774C-238.06 432.778 -326.278 519.498 -353.872 472.891C-382.362 424.771 -300.098 378.022 -275.434 327.833C-263.891 304.344 -252.315 281.657 -247.274 255.975C-239.853 218.172 -251.295 179.205 -239.088 142.666C-216.42 74.8187 -215.05 -27.4714 -146.15 -46.7017C-84.4963 -63.9096 -50.7876 33.7724 -3.49785 76.9115C30.8377 108.233 59.4773 142.164 94.446 172.777C143.411 215.644 219.795 232.844 243.739 293.357C267.853 354.3 247.647 426.475 217.946 484.899C188.4 543.017 136.008 586.24 78.8758 617.649C24.5107 647.536 -45.1273 689.582 -99.2681 659.29C-163.343 623.44 -135.114 508.146 -194.356 464.774Z" fill="#2699FB"/>
</svg>
