<svg width="25" height="24" viewBox="0 0 25 24" fill="none" xmlns="http://www.w3.org/2000/svg">
<path d="M2.5 9.75C2.09 9.75 1.75 9.41 1.75 9V6.5C1.75 3.6 4.11 1.25 7 1.25H9.5C9.91 1.25 10.25 1.59 10.25 2C10.25 2.41 9.91 2.75 9.5 2.75H7C4.93 2.75 3.25 4.43 3.25 6.5V9C3.25 9.41 2.91 9.75 2.5 9.75Z" fill="white"/>
<path d="M22.5 9.75C22.09 9.75 21.75 9.41 21.75 9V6.5C21.75 4.43 20.07 2.75 18 2.75H15.5C15.09 2.75 14.75 2.41 14.75 2C14.75 1.59 15.09 1.25 15.5 1.25H18C20.89 1.25 23.25 3.6 23.25 6.5V9C23.25 9.41 22.91 9.75 22.5 9.75Z" fill="white"/>
<path d="M18 22.75H16.5C16.09 22.75 15.75 22.41 15.75 22C15.75 21.59 16.09 21.25 16.5 21.25H18C20.07 21.25 21.75 19.57 21.75 17.5V16C21.75 15.59 22.09 15.25 22.5 15.25C22.91 15.25 23.25 15.59 23.25 16V17.5C23.25 20.4 20.89 22.75 18 22.75Z" fill="white"/>
<path d="M9.5 22.75H7C4.11 22.75 1.75 20.4 1.75 17.5V15C1.75 14.59 2.09 14.25 2.5 14.25C2.91 14.25 3.25 14.59 3.25 15V17.5C3.25 19.57 4.93 21.25 7 21.25H9.5C9.91 21.25 10.25 21.59 10.25 22C10.25 22.41 9.91 22.75 9.5 22.75Z" fill="white"/>
<path d="M9.5 5.25H7.5C6.36 5.25 5.75 5.85 5.75 7V9C5.75 10.15 6.36 10.75 7.5 10.75H9.5C10.64 10.75 11.25 10.15 11.25 9V7C11.25 5.85 10.64 5.25 9.5 5.25Z" fill="white"/>
<path d="M17.5 5.25H15.5C14.36 5.25 13.75 5.85 13.75 7V9C13.75 10.15 14.36 10.75 15.5 10.75H17.5C18.64 10.75 19.25 10.15 19.25 9V7C19.25 5.85 18.64 5.25 17.5 5.25Z" fill="white"/>
<path d="M9.5 13.25H7.5C6.36 13.25 5.75 13.85 5.75 15V17C5.75 18.15 6.36 18.75 7.5 18.75H9.5C10.64 18.75 11.25 18.15 11.25 17V15C11.25 13.85 10.64 13.25 9.5 13.25Z" fill="white"/>
<path d="M17.5 13.25H15.5C14.36 13.25 13.75 13.85 13.75 15V17C13.75 18.15 14.36 18.75 15.5 18.75H17.5C18.64 18.75 19.25 18.15 19.25 17V15C19.25 13.85 18.64 13.25 17.5 13.25Z" fill="white"/>
</svg>
