<svg width="19" height="19" viewBox="0 0 19 19" fill="none" xmlns="http://www.w3.org/2000/svg">
<path d="M17.498 3.7796V12.6971C17.498 13.4246 16.9055 14.0921 16.178 14.1821L15.9455 14.2121C14.7155 14.3771 12.983 14.8871 11.588 15.4721C11.1005 15.6746 10.5605 15.3071 10.5605 14.7746V4.3421C10.5605 4.0646 10.718 3.8096 10.9655 3.6746C12.338 2.9321 14.4155 2.2721 15.8255 2.1521H15.8705C16.7705 2.1521 17.498 2.8796 17.498 3.7796Z" fill="white"/>
<path d="M9.0306 3.6746C7.6581 2.9321 5.5806 2.2721 4.1706 2.1521H4.1181C3.2181 2.1521 2.4906 2.8796 2.4906 3.7796V12.6971C2.4906 13.4246 3.0831 14.0921 3.8106 14.1821L4.0431 14.2121C5.2731 14.3771 7.0056 14.8871 8.4006 15.4721C8.8881 15.6746 9.4281 15.3071 9.4281 14.7746V4.3421C9.4281 4.0571 9.2781 3.8096 9.0306 3.6746ZM4.7481 5.9471H6.4356C6.7431 5.9471 6.9981 6.2021 6.9981 6.5096C6.9981 6.8246 6.7431 7.0721 6.4356 7.0721H4.7481C4.4406 7.0721 4.1856 6.8246 4.1856 6.5096C4.1856 6.2021 4.4406 5.9471 4.7481 5.9471ZM6.9981 9.3221H4.7481C4.4406 9.3221 4.1856 9.0746 4.1856 8.7596C4.1856 8.4521 4.4406 8.1971 4.7481 8.1971H6.9981C7.3056 8.1971 7.5606 8.4521 7.5606 8.7596C7.5606 9.0746 7.3056 9.3221 6.9981 9.3221Z" fill="white"/>
</svg>
