<svg width="29" height="29" viewBox="0 0 29 29" fill="none" xmlns="http://www.w3.org/2000/svg">
<path d="M20.9542 27.2301C19.6161 27.2301 18.2069 26.9103 16.7503 26.2945C15.3292 25.6906 13.8963 24.8616 12.499 23.8551C11.1134 22.8366 9.77528 21.6998 8.50818 20.4564C7.25291 19.1893 6.11607 17.8511 5.10949 16.4774C4.09107 15.0564 3.27397 13.6353 2.6937 12.2616C2.07791 10.7932 1.77002 9.37216 1.77002 8.034C1.77002 7.11032 1.93581 6.234 2.25555 5.4169C2.58712 4.57611 3.12002 3.79453 3.84239 3.11953C4.75423 2.21953 5.79634 1.76953 6.90949 1.76953C7.37134 1.76953 7.84502 1.87611 8.24765 2.06558C8.70949 2.27874 9.10028 2.59848 9.38449 3.02479L12.1319 6.89716C12.3805 7.24058 12.57 7.57216 12.7003 7.90374C12.8542 8.259 12.9371 8.61427 12.9371 8.95769C12.9371 9.40769 12.8069 9.84585 12.5582 10.2603C12.3805 10.5801 12.1082 10.9235 11.7648 11.2669L10.9595 12.1077C10.9713 12.1432 10.9832 12.1669 10.995 12.1906C11.1371 12.4393 11.4213 12.8656 11.9661 13.5051C12.5463 14.1682 13.0911 14.7722 13.6358 15.3287C14.3345 16.0156 14.9148 16.5603 15.4595 17.0103C16.1345 17.5787 16.5727 17.863 16.8332 17.9932L16.8095 18.0524L17.674 17.1998C18.0411 16.8327 18.3963 16.5603 18.7398 16.3827C19.3911 15.9801 20.22 15.909 21.049 16.2524C21.3569 16.3827 21.6884 16.5603 22.0437 16.809L25.9753 19.6037C26.4134 19.8998 26.7332 20.2787 26.9227 20.7287C27.1003 21.1787 27.1832 21.5932 27.1832 22.0077C27.1832 22.5761 27.0529 23.1445 26.8042 23.6774C26.5555 24.2103 26.2477 24.6722 25.8569 25.0985C25.1819 25.8445 24.4477 26.3774 23.595 26.7208C22.7779 27.0524 21.8898 27.2301 20.9542 27.2301ZM6.90949 3.54585C6.25818 3.54585 5.65423 3.83006 5.07397 4.39848C4.52923 4.90769 4.15028 5.46427 3.91344 6.06822C3.66476 6.68401 3.54634 7.33532 3.54634 8.034C3.54634 9.13532 3.80686 10.3314 4.32791 11.563C4.86081 12.8182 5.60686 14.1208 6.55423 15.4235C7.5016 16.7261 8.57923 17.9932 9.76344 19.1893C10.9477 20.3616 12.2266 21.4511 13.5411 22.4103C14.82 23.3458 16.1345 24.1037 17.4371 24.6485C19.4621 25.513 21.3569 25.7143 22.92 25.063C23.524 24.8143 24.0569 24.4353 24.5424 23.8906C24.8148 23.5945 25.0279 23.2748 25.2055 22.8958C25.3477 22.5998 25.4187 22.2919 25.4187 21.984C25.4187 21.7945 25.3832 21.6051 25.2884 21.3919C25.2529 21.3208 25.1819 21.1906 24.9569 21.0366L21.0253 18.2419C20.7884 18.0761 20.5753 17.9577 20.374 17.8748C20.1134 17.7682 20.0069 17.6616 19.6042 17.9103C19.3674 18.0287 19.1542 18.2064 18.9174 18.4432L18.0174 19.3314C17.5555 19.7814 16.845 19.888 16.3003 19.6866L15.9805 19.5445C15.495 19.284 14.9266 18.8814 14.299 18.3485C13.7305 17.863 13.1148 17.2945 12.3687 16.5603C11.7884 15.9682 11.2082 15.3406 10.6042 14.6419C10.0477 13.9906 9.64502 13.434 9.39634 12.9722L9.25423 12.6169C9.18318 12.3445 9.15949 12.1906 9.15949 12.0248C9.15949 11.5985 9.31344 11.2195 9.60949 10.9235L10.4977 9.99979C10.7345 9.76295 10.9121 9.53795 11.0305 9.33664C11.1253 9.18269 11.1608 9.05243 11.1608 8.93401C11.1608 8.83927 11.1253 8.69716 11.0661 8.55506C10.9832 8.36558 10.8529 8.15243 10.6871 7.92743L7.93976 4.04322C7.82134 3.87743 7.67923 3.759 7.5016 3.67611C7.31213 3.59322 7.11081 3.54585 6.90949 3.54585ZM16.8095 18.0643L16.62 18.8695L16.9398 18.0406C16.8805 18.0287 16.8332 18.0406 16.8095 18.0643Z" fill="#1855AB"/>
</svg>
