<svg width="57" height="57" viewBox="0 0 57 57" fill="none" xmlns="http://www.w3.org/2000/svg">
<path d="M5.06262 26.8911V38.6099C5.06262 43.9771 9.39856 48.313 14.7657 48.313H42.2111C47.5783 48.313 51.9376 43.9536 51.9376 38.5864V26.8911C51.9376 25.3208 50.672 24.0552 49.1017 24.0552H7.89856C6.32825 24.0552 5.06262 25.3208 5.06262 26.8911ZM19.1251 40.4614H14.4376C13.4767 40.4614 12.6798 39.6646 12.6798 38.7036C12.6798 37.7427 13.4767 36.9458 14.4376 36.9458H19.1251C20.0861 36.9458 20.8829 37.7427 20.8829 38.7036C20.8829 39.6646 20.0861 40.4614 19.1251 40.4614ZM34.3595 40.4614H24.9845C24.0236 40.4614 23.2267 39.6646 23.2267 38.7036C23.2267 37.7427 24.0236 36.9458 24.9845 36.9458H34.3595C35.3204 36.9458 36.1173 37.7427 36.1173 38.7036C36.1173 39.6646 35.3204 40.4614 34.3595 40.4614Z" fill="#2D79E6"/>
<path d="M32.0157 10.8359V17.7031C32.0157 19.2734 30.7501 20.5391 29.1798 20.5391H7.89856C6.30481 20.5391 5.06262 19.2266 5.06262 17.6563C5.08606 15.0078 6.14075 12.5938 7.89856 10.8359C9.65637 9.07813 12.0939 8 14.7657 8H29.1798C30.7501 8 32.0157 9.26563 32.0157 10.8359Z" fill="#2D79E6"/>
<path d="M47.1797 4.71924H40.2891C37.3125 4.71924 35.5312 6.50049 35.5312 9.47705V16.3677C35.5312 19.3442 37.3125 21.1255 40.2891 21.1255H47.1797C50.1562 21.1255 51.9375 19.3442 51.9375 16.3677V9.47705C51.9375 6.50049 50.1562 4.71924 47.1797 4.71924ZM48.7266 10.4614L43.1719 16.9536C42.9609 17.2114 42.6328 17.3755 42.3047 17.3755C42.2812 17.3755 42.2813 17.3755 42.2578 17.3755C41.9297 17.3755 41.625 17.2583 41.3906 17.0239L38.8125 14.4927C38.3437 14.0239 38.3437 13.2505 38.8125 12.7817C39.2812 12.313 40.0547 12.2896 40.5234 12.7817L42.1641 14.3989L46.8516 8.91455C47.2969 8.39893 48.0469 8.35205 48.5625 8.77393C49.1016 9.1958 49.1484 9.96924 48.7266 10.4614Z" fill="#2D79E6"/>
</svg>
