<svg width="25" height="24" viewBox="0 0 25 24" fill="none" xmlns="http://www.w3.org/2000/svg">
<path d="M14.6 2H9.90001C8.86001 2 8.01001 2.84 8.01001 3.88V4.82C8.01001 5.86 8.85001 6.7 9.89001 6.7H14.6C15.64 6.7 16.48 5.86 16.48 4.82V3.88C16.49 2.84 15.64 2 14.6 2Z" fill="#FBFBFB"/>
<path d="M17.49 4.82047C17.49 6.41047 16.19 7.71047 14.6 7.71047H9.89998C8.30998 7.71047 7.00998 6.41047 7.00998 4.82047C7.00998 4.26047 6.40998 3.91047 5.90998 4.17047C4.49998 4.92047 3.53998 6.41047 3.53998 8.12047V17.5305C3.53998 19.9905 5.54998 22.0005 8.00998 22.0005H16.49C18.95 22.0005 20.96 19.9905 20.96 17.5305V8.12047C20.96 6.41047 20 4.92047 18.59 4.17047C18.09 3.91047 17.49 4.26047 17.49 4.82047ZM15.59 12.7305L11.59 16.7305C11.44 16.8805 11.25 16.9505 11.06 16.9505C10.87 16.9505 10.68 16.8805 10.53 16.7305L9.02998 15.2305C8.73998 14.9405 8.73998 14.4605 9.02998 14.1705C9.31998 13.8805 9.79998 13.8805 10.09 14.1705L11.06 15.1405L14.53 11.6705C14.82 11.3805 15.3 11.3805 15.59 11.6705C15.88 11.9605 15.88 12.4405 15.59 12.7305Z" fill="#FBFBFB"/>
</svg>
