<svg width="30" height="29" viewBox="0 0 30 29" fill="none" xmlns="http://www.w3.org/2000/svg">
<mask id="path-1-inside-1_2262_8598" fill="white">
<path d="M13.603 20.6756C13.38 20.6756 13.157 20.5934 12.9809 20.4174L11.2205 18.6569C10.8802 18.3166 10.8802 17.7533 11.2205 17.4129C11.5609 17.0726 12.1242 17.0726 12.4646 17.4129L13.603 18.5513L17.6754 14.4789C18.0157 14.1385 18.5791 14.1385 18.9194 14.4789C19.2598 14.8192 19.2598 15.3826 18.9194 15.7229L14.225 20.4174C14.0607 20.5934 13.8259 20.6756 13.603 20.6756Z"/>
</mask>
<path d="M13.603 20.6756C13.38 20.6756 13.157 20.5934 12.9809 20.4174L11.2205 18.6569C10.8802 18.3166 10.8802 17.7533 11.2205 17.4129C11.5609 17.0726 12.1242 17.0726 12.4646 17.4129L13.603 18.5513L17.6754 14.4789C18.0157 14.1385 18.5791 14.1385 18.9194 14.4789C19.2598 14.8192 19.2598 15.3826 18.9194 15.7229L14.225 20.4174C14.0607 20.5934 13.8259 20.6756 13.603 20.6756Z" fill="#292D32"/>
<path d="M12.9809 20.4174L11.2132 22.1851L11.2132 22.1851L12.9809 20.4174ZM11.2205 18.6569L12.9883 16.8892H12.9883L11.2205 18.6569ZM13.603 18.5513L11.8352 20.3191L13.603 22.0869L15.3707 20.3191L13.603 18.5513ZM17.6754 14.4789L15.9076 12.7111V12.7111L17.6754 14.4789ZM18.9194 15.7229L20.6872 17.4907L18.9194 15.7229ZM14.225 20.4174L12.4572 18.6496L12.4267 18.6801L12.3973 18.7116L14.225 20.4174ZM13.603 18.1756C14.0072 18.1756 14.4312 18.3321 14.7487 18.6496L11.2132 22.1851C11.8828 22.8547 12.7527 23.1756 13.603 23.1756V18.1756ZM14.7487 18.6496L12.9883 16.8892L9.45276 20.4247L11.2132 22.1851L14.7487 18.6496ZM12.9883 16.8892C13.6243 17.5251 13.6243 18.5447 12.9883 19.1807L9.45276 15.6452C8.13611 16.9618 8.13611 19.1081 9.45276 20.4247L12.9883 16.8892ZM12.9883 19.1807C12.3523 19.8167 11.3328 19.8167 10.6968 19.1807L14.2323 15.6452C12.9157 14.3285 10.7694 14.3285 9.45276 15.6452L12.9883 19.1807ZM10.6968 19.1807L11.8352 20.3191L15.3707 16.7836L14.2323 15.6452L10.6968 19.1807ZM15.3707 20.3191L19.4432 16.2467L15.9076 12.7111L11.8352 16.7836L15.3707 20.3191ZM19.4432 16.2467C18.8072 16.8826 17.7876 16.8826 17.1517 16.2467L20.6872 12.7111C19.3705 11.3945 17.2243 11.3945 15.9076 12.7111L19.4432 16.2467ZM17.1517 16.2467C16.5157 15.6107 16.5157 14.5911 17.1517 13.9552L20.6872 17.4907C22.0038 16.174 22.0038 14.0278 20.6872 12.7111L17.1517 16.2467ZM17.1517 13.9552L12.4572 18.6496L15.9927 22.1851L20.6872 17.4907L17.1517 13.9552ZM12.3973 18.7116C12.7818 18.2997 13.2527 18.1756 13.603 18.1756V23.1756C14.3992 23.1756 15.3396 22.8871 16.0526 22.1232L12.3973 18.7116Z" fill="#1855AB" mask="url(#path-1-inside-1_2262_8598)"/>
<mask id="path-3-inside-2_2262_8598" fill="white">
<path d="M17.3467 8.70474H12.6523C11.5256 8.70474 9.42487 8.70474 9.42487 5.47731C9.42487 2.24988 11.5256 2.24988 12.6523 2.24988H17.3467C18.4734 2.24988 20.5742 2.24988 20.5742 5.47731C20.5742 6.60398 20.5742 8.70474 17.3467 8.70474ZM12.6523 4.01029C11.4904 4.01029 11.1853 4.01029 11.1853 5.47731C11.1853 6.94432 11.4904 6.94432 12.6523 6.94432H17.3467C18.8138 6.94432 18.8138 6.63918 18.8138 5.47731C18.8138 4.01029 18.5086 4.01029 17.3467 4.01029H12.6523Z"/>
</mask>
<path d="M17.3467 8.70474H12.6523C11.5256 8.70474 9.42487 8.70474 9.42487 5.47731C9.42487 2.24988 11.5256 2.24988 12.6523 2.24988H17.3467C18.4734 2.24988 20.5742 2.24988 20.5742 5.47731C20.5742 6.60398 20.5742 8.70474 17.3467 8.70474ZM12.6523 4.01029C11.4904 4.01029 11.1853 4.01029 11.1853 5.47731C11.1853 6.94432 11.4904 6.94432 12.6523 6.94432H17.3467C18.8138 6.94432 18.8138 6.63918 18.8138 5.47731C18.8138 4.01029 18.5086 4.01029 17.3467 4.01029H12.6523Z" fill="#292D32"/>
<path d="M17.3467 6.20474H12.6523V11.2047H17.3467V6.20474ZM12.6523 6.20474C12.3553 6.20474 12.1805 6.20132 12.0239 6.17911C11.8771 6.15827 11.8639 6.13429 11.9113 6.163C11.99 6.21068 12.0318 6.27667 12.0309 6.27472C12.0152 6.24148 11.9249 6.02417 11.9249 5.47731H6.92487C6.92487 7.67478 7.68799 9.45055 9.32085 10.4396C10.6739 11.2592 12.1923 11.2047 12.6523 11.2047V6.20474ZM11.9249 5.47731C11.9249 4.93045 12.0152 4.71313 12.0309 4.6799C12.0318 4.67794 11.99 4.74394 11.9113 4.79162C11.8639 4.82033 11.8771 4.79635 12.0239 4.77551C12.1805 4.7533 12.3553 4.74988 12.6523 4.74988V-0.250122C12.1923 -0.250122 10.6739 -0.304564 9.32085 0.514996C7.68799 1.50406 6.92487 3.27984 6.92487 5.47731H11.9249ZM12.6523 4.74988H17.3467V-0.250122H12.6523V4.74988ZM17.3467 4.74988C17.6438 4.74988 17.8186 4.7533 17.9751 4.77551C18.122 4.79635 18.1351 4.82033 18.0877 4.79162C18.009 4.74394 17.9672 4.67794 17.9681 4.6799C17.9839 4.71313 18.0742 4.93045 18.0742 5.47731H23.0742C23.0742 3.27984 22.3111 1.50406 20.6782 0.514996C19.3252 -0.304564 17.8067 -0.250122 17.3467 -0.250122V4.74988ZM18.0742 5.47731C18.0742 5.77434 18.0708 5.94914 18.0485 6.10568C18.0277 6.25255 18.0037 6.2657 18.0324 6.21829C18.0801 6.13958 18.1461 6.09779 18.1442 6.09871C18.1109 6.11442 17.8936 6.20474 17.3467 6.20474V11.2047C19.5442 11.2047 21.32 10.4416 22.3091 8.80876C23.1286 7.45574 23.0742 5.93727 23.0742 5.47731H18.0742ZM12.6523 1.51029C12.4164 1.51029 12.0094 1.50633 11.6365 1.55085C11.2476 1.59728 10.5396 1.72928 9.88891 2.2679C9.20446 2.83449 8.93089 3.5563 8.81296 4.07654C8.7027 4.56299 8.68528 5.06476 8.68528 5.47731H13.6853C13.6853 5.15635 13.706 5.10799 13.6893 5.18184C13.6649 5.28949 13.5402 5.73623 13.0773 6.11944C12.6481 6.47468 12.2342 6.515 12.2293 6.51559C12.2133 6.5175 12.2321 6.51444 12.3156 6.51244C12.3993 6.51044 12.4992 6.51029 12.6523 6.51029V1.51029ZM8.68528 5.47731C8.68528 5.88985 8.7027 6.39163 8.81296 6.87807C8.93089 7.39832 9.20446 8.12012 9.88891 8.68672C10.5396 9.22533 11.2476 9.35734 11.6365 9.40377C12.0094 9.44828 12.4164 9.44432 12.6523 9.44432V4.44432C12.4992 4.44432 12.3993 4.44418 12.3156 4.44218C12.2321 4.44017 12.2133 4.43712 12.2293 4.43903C12.2342 4.43962 12.6481 4.47994 13.0773 4.83518C13.5402 5.21839 13.6649 5.66513 13.6893 5.77278C13.706 5.84662 13.6853 5.79827 13.6853 5.47731H8.68528ZM12.6523 9.44432H17.3467V4.44432H12.6523V9.44432ZM17.3467 9.44432C17.7593 9.44432 18.2611 9.4269 18.7475 9.31664C19.2678 9.19872 19.9896 8.92514 20.5561 8.2407C21.0948 7.59005 21.2268 6.88196 21.2732 6.49306C21.3177 6.12022 21.3138 5.71322 21.3138 5.47731H16.3138C16.3138 5.63043 16.3136 5.73033 16.3116 5.81402C16.3096 5.89751 16.3066 5.91632 16.3085 5.90033C16.309 5.89542 16.3494 5.48147 16.7046 5.05234C17.0878 4.58941 17.5346 4.46474 17.6422 4.44034C17.7161 4.4236 17.6677 4.44432 17.3467 4.44432V9.44432ZM21.3138 5.47731C21.3138 5.06476 21.2963 4.56299 21.1861 4.07654C21.0682 3.5563 20.7946 2.83449 20.1101 2.2679C19.4595 1.72928 18.7514 1.59728 18.3625 1.55085C17.9897 1.50633 17.5826 1.51029 17.3467 1.51029V6.51029C17.4999 6.51029 17.5998 6.51044 17.6835 6.51244C17.7669 6.51444 17.7858 6.5175 17.7698 6.51559C17.7649 6.515 17.3509 6.47468 16.9218 6.11944C16.4588 5.73623 16.3342 5.28949 16.3098 5.18184C16.293 5.10799 16.3138 5.15635 16.3138 5.47731H21.3138ZM17.3467 1.51029H12.6523V6.51029H17.3467V1.51029Z" fill="#1855AB" mask="url(#path-3-inside-2_2262_8598)"/>
<mask id="path-5-inside-3_2262_8598" fill="white">
<path d="M18.5204 27.4825H11.4787C4.883 27.4825 3.55682 24.4546 3.55682 19.5606V12.519C3.55682 7.16729 5.49328 4.87874 10.2581 4.63229C10.7393 4.60881 11.1618 4.97263 11.1853 5.46555C11.2088 5.95847 10.8332 6.35749 10.352 6.38097C7.01898 6.56874 5.31724 7.56631 5.31724 12.519V19.5606C5.31724 23.903 6.17398 25.7221 11.4787 25.7221H18.5204C23.8251 25.7221 24.6818 23.903 24.6818 19.5606V12.519C24.6818 7.56631 22.9801 6.56874 19.647 6.38097C19.1659 6.35749 18.7903 5.93499 18.8138 5.45381C18.8372 4.97263 19.248 4.59708 19.7409 4.62055C24.5058 4.87874 26.4422 7.16729 26.4422 12.5072V19.5489C26.4422 24.4546 25.1161 27.4825 18.5204 27.4825Z"/>
</mask>
<path d="M18.5204 27.4825H11.4787C4.883 27.4825 3.55682 24.4546 3.55682 19.5606V12.519C3.55682 7.16729 5.49328 4.87874 10.2581 4.63229C10.7393 4.60881 11.1618 4.97263 11.1853 5.46555C11.2088 5.95847 10.8332 6.35749 10.352 6.38097C7.01898 6.56874 5.31724 7.56631 5.31724 12.519V19.5606C5.31724 23.903 6.17398 25.7221 11.4787 25.7221H18.5204C23.8251 25.7221 24.6818 23.903 24.6818 19.5606V12.519C24.6818 7.56631 22.9801 6.56874 19.647 6.38097C19.1659 6.35749 18.7903 5.93499 18.8138 5.45381C18.8372 4.97263 19.248 4.59708 19.7409 4.62055C24.5058 4.87874 26.4422 7.16729 26.4422 12.5072V19.5489C26.4422 24.4546 25.1161 27.4825 18.5204 27.4825Z" fill="#292D32"/>
<path d="M10.2581 4.63229L10.1363 2.13524L10.129 2.13562L10.2581 4.63229ZM10.352 6.38097L10.2302 3.88394L10.2208 3.88439L10.2114 3.88492L10.352 6.38097ZM19.647 6.38097L19.7877 3.88492L19.7782 3.88439L19.7688 3.88394L19.647 6.38097ZM19.7409 4.62055L19.8762 2.12421L19.868 2.12377L19.8598 2.12338L19.7409 4.62055ZM18.5204 24.9825H11.4787V29.9825H18.5204V24.9825ZM11.4787 24.9825C8.48967 24.9825 7.41548 24.2897 6.95432 23.7437C6.40982 23.099 6.05682 21.9159 6.05682 19.5606H1.05682C1.05682 22.0993 1.36692 24.8771 3.13444 26.9699C4.98529 29.1613 7.87203 29.9825 11.4787 29.9825V24.9825ZM6.05682 19.5606V12.519H1.05682V19.5606H6.05682ZM6.05682 12.519C6.05682 10.0591 6.5187 8.8773 7.02654 8.27907C7.4773 7.74808 8.34721 7.23447 10.3873 7.12895L10.129 2.13562C7.40422 2.27656 4.92346 3.03045 3.21478 5.04326C1.56317 6.98883 1.05682 9.6271 1.05682 12.519H6.05682ZM10.38 7.12932C9.53624 7.17047 8.73299 6.5265 8.68813 5.58446L13.6825 5.34664C13.5907 3.41876 11.9424 2.04715 10.1363 2.13526L10.38 7.12932ZM8.68813 5.58446C8.64457 4.66968 9.36333 3.92622 10.2302 3.88394L10.4738 8.878C12.3031 8.78877 13.773 7.24725 13.6825 5.34664L8.68813 5.58446ZM10.2114 3.88492C8.45121 3.98409 6.31634 4.30569 4.76688 5.94693C3.24074 7.56346 2.81724 9.88727 2.81724 12.519H7.81724C7.81724 10.198 8.24461 9.5467 8.40261 9.37934C8.53728 9.2367 8.9198 8.96562 10.4927 8.87701L10.2114 3.88492ZM2.81724 12.519V19.5606H7.81724V12.519H2.81724ZM2.81724 19.5606C2.81724 21.6778 2.96476 24.1393 4.53137 25.9207C6.17445 27.7891 8.71565 28.2221 11.4787 28.2221V23.2221C8.93703 23.2221 8.39749 22.7455 8.28603 22.6188C8.09808 22.4051 7.81724 21.7858 7.81724 19.5606H2.81724ZM11.4787 28.2221H18.5204V23.2221H11.4787V28.2221ZM18.5204 28.2221C21.2834 28.2221 23.8246 27.7891 25.4677 25.9207C27.0343 24.1393 27.1818 21.6778 27.1818 19.5606H22.1818C22.1818 21.7858 21.901 22.4051 21.713 22.6188C21.6016 22.7455 21.062 23.2221 18.5204 23.2221V28.2221ZM27.1818 19.5606V12.519H22.1818V19.5606H27.1818ZM27.1818 12.519C27.1818 9.88727 26.7583 7.56346 25.2322 5.94693C23.6827 4.30569 21.5479 3.98409 19.7877 3.88492L19.5064 8.87701C21.0793 8.96562 21.4618 9.2367 21.5965 9.37934C21.7545 9.5467 22.1818 10.198 22.1818 12.519H27.1818ZM19.7688 3.88394C20.6961 3.92917 21.3532 4.70724 21.3108 5.57562L16.3167 5.33201C16.2274 7.16275 17.6356 8.78582 19.5252 8.878L19.7688 3.88394ZM21.3108 5.57562C21.2665 6.48407 20.4954 7.15931 19.622 7.11772L19.8598 2.12338C18.0006 2.03485 16.408 3.4612 16.3167 5.33201L21.3108 5.57562ZM19.6057 7.11689C21.6467 7.22748 22.5197 7.74274 22.9725 8.27614C23.481 8.87511 23.9422 10.0549 23.9422 12.5072H28.9422C28.9422 9.61957 28.4353 6.98515 26.7843 5.04032C25.0776 3.02992 22.6 2.27181 19.8762 2.12421L19.6057 7.11689ZM23.9422 12.5072V19.5489H28.9422V12.5072H23.9422ZM23.9422 19.5489C23.9422 21.911 23.589 23.0972 23.0439 23.7432C22.5828 24.2897 21.5094 24.9825 18.5204 24.9825V29.9825C22.127 29.9825 25.0145 29.1613 26.8655 26.9674C28.6324 24.8731 28.9422 22.0924 28.9422 19.5489H23.9422Z" fill="#1855AB" mask="url(#path-5-inside-3_2262_8598)"/>
</svg>
