<svg width="18" height="19" viewBox="0 0 18 19" fill="none" xmlns="http://www.w3.org/2000/svg">
<path d="M9.97498 6.58274L10.965 8.56274C11.1 8.83274 11.46 9.10274 11.76 9.14774L13.5525 9.44774C14.7 9.64274 14.97 10.4677 14.145 11.2927L12.75 12.6952C12.5175 12.9277 12.3825 13.3852 12.4575 13.7152L12.855 15.4477C13.17 16.8127 12.4425 17.3452 11.235 16.6327L9.55498 15.6352C9.24748 15.4552 8.75248 15.4552 8.44498 15.6352L6.75748 16.6252C5.54998 17.3377 4.82248 16.8052 5.13748 15.4402L5.53498 13.7077C5.60998 13.3852 5.47498 12.9277 5.24248 12.6877L3.85498 11.3002C3.02998 10.4752 3.29998 9.64274 4.44748 9.45524L6.23998 9.15524C6.53998 9.10274 6.89998 8.84024 7.03498 8.57024L8.02498 6.59024C8.55748 5.51024 9.44248 5.51024 9.97498 6.58274Z" fill="#1855AB"/>
<path d="M4.5 7.8125C4.1925 7.8125 3.9375 7.5575 3.9375 7.25V2C3.9375 1.6925 4.1925 1.4375 4.5 1.4375C4.8075 1.4375 5.0625 1.6925 5.0625 2V7.25C5.0625 7.5575 4.8075 7.8125 4.5 7.8125Z" fill="#1855AB"/>
<path d="M13.5 7.8125C13.1925 7.8125 12.9375 7.5575 12.9375 7.25V2C12.9375 1.6925 13.1925 1.4375 13.5 1.4375C13.8075 1.4375 14.0625 1.6925 14.0625 2V7.25C14.0625 7.5575 13.8075 7.8125 13.5 7.8125Z" fill="#1855AB"/>
<path d="M9 4.0625C8.6925 4.0625 8.4375 3.8075 8.4375 3.5V2C8.4375 1.6925 8.6925 1.4375 9 1.4375C9.3075 1.4375 9.5625 1.6925 9.5625 2V3.5C9.5625 3.8075 9.3075 4.0625 9 4.0625Z" fill="#1855AB"/>
</svg>
