<svg width="24" height="24" viewBox="0 0 24 24" fill="none" xmlns="http://www.w3.org/2000/svg">
    <path d="M2.5 12c0-5.234 4.266-9.5 9.5-9.5s9.5 4.266 9.5 9.5-4.266 9.5-9.5 9.5-9.5-4.266-9.5-9.5zm4 0c0 .823.66 1.5 1.5 1.5s1.5-.677 1.5-1.5c0-.826-.674-1.5-1.5-1.5s-1.5.674-1.5 1.5zm4 0c0 .823.66 1.5 1.5 1.5s1.5-.677 1.5-1.5c0-.826-.674-1.5-1.5-1.5s-1.5.674-1.5 1.5zm4 0c0 .823.66 1.5 1.5 1.5s1.5-.677 1.5-1.5c0-.826-.674-1.5-1.5-1.5s-1.5.674-1.5 1.5z" fill="#1855AB" stroke="#1855AB"/>
</svg>
