<svg width="18" height="19" viewBox="0 0 18 19" fill="none" xmlns="http://www.w3.org/2000/svg">
    <path d="M9 10.063A4.318 4.318 0 0 1 4.687 5.75 4.318 4.318 0 0 1 9 1.437a4.318 4.318 0 0 1 4.313 4.313A4.318 4.318 0 0 1 9 10.063zm0-7.5A3.194 3.194 0 0 0 5.812 5.75 3.194 3.194 0 0 0 9 8.938a3.194 3.194 0 0 0 3.188-3.188A3.194 3.194 0 0 0 9 2.562zM11.865 17.563c-.285 0-.555-.105-.75-.3a1.067 1.067 0 0 1-.285-.923l.143-1.012c.037-.263.194-.57.382-.765l2.655-2.655c1.065-1.066 2.003-.458 2.46 0 .39.39.593.81.593 1.23 0 .427-.195.825-.593 1.222l-2.655 2.655a1.485 1.485 0 0 1-.765.383l-1.013.142a.68.68 0 0 1-.172.023zm3.367-5.123c-.134 0-.255.09-.427.263l-2.655 2.655a.285.285 0 0 0-.06.127l-.135.938.938-.135a.417.417 0 0 0 .127-.068l2.655-2.655c.12-.12.262-.292.262-.428 0-.112-.09-.27-.262-.434-.18-.18-.315-.263-.443-.263z" fill="#fff"/>
    <path d="M15.69 14.915a.484.484 0 0 1-.15-.022 2.983 2.983 0 0 1-2.055-2.056.558.558 0 0 1 .39-.69c.3-.082.608.09.69.39a1.85 1.85 0 0 0 1.275 1.275.562.562 0 0 1-.15 1.103zM2.558 17.563A.567.567 0 0 1 1.995 17c0-3.203 3.143-5.813 7.005-5.813.818 0 1.628.12 2.385.346.3.09.465.405.375.697a.558.558 0 0 1-.697.375c-.66-.195-1.35-.3-2.063-.3-3.24 0-5.88 2.1-5.88 4.688 0 .315-.255.57-.562.57z" fill="#fff"/>
</svg>
