<svg width="40" height="40" viewBox="0 0 40 40" fill="none" xmlns="http://www.w3.org/2000/svg">
<path d="M12.0125 8.40792C7.48589 12.9342 3.23511 17.1842 2.58307 17.8553C1.88088 18.5527 1.37931 19.1579 1.37931 19.3027C1.37931 19.4474 1.49216 19.6842 1.63009 19.8421C1.88088 20.1185 1.98119 20.1316 4.13793 20.1316H6.39498V28.0263V35.9342L6.70846 36.25L7.0094 36.579H20.6646C33.8182 36.579 34.3323 36.5658 34.5329 36.329C34.721 36.1053 34.7461 35.4079 34.7335 28.1053V20.1316H36.9781C38.2194 20.1316 39.3103 20.0921 39.4232 20.0527C39.5486 20 39.6238 19.8158 39.6238 19.5658C39.6238 19.1974 39.1348 18.6448 35.4232 14.7369L31.2226 10.329V7.00003V3.68424H28.4639H25.7053V4.07898C25.7053 4.28951 25.6552 4.47371 25.5925 4.47371C25.5298 4.47371 24.3511 3.53951 22.9843 2.39477C21.6176 1.25003 20.4514 0.289501 20.3762 0.250031C20.3135 0.197399 16.5392 3.88161 12.0125 8.40792Z" fill="white"/>
</svg>
