{
  "file_generated_by": "FlutterFire CLI",
  "purpose": "FirebaseAppID & ProjectID for this Firebase app in this directory",
  "GOOGLE_APP_ID": "1:802887877955:ios:826c40377664e3fbc2dbf6",
  "FIREBASE_PROJECT_ID": "camemis-150215",
  "GCM_SENDER_ID": "802887877955"
}