{
  "configVersion": 2,
  "packages": [
    {
      "name": "_flutterfire_internals",
      "rootUri": "file:///Users/holy/.pub-cache/hosted/pub.dev/_flutterfire_internals-1.0.2",
      "packageUri": "lib/",
      "languageVersion": "2.16"
    },
    {
      "name": "animate_icons",
      "rootUri": "file:///Users/holy/.pub-cache/hosted/pub.dev/animate_icons-2.0.0",
      "packageUri": "lib/",
      "languageVersion": "2.12"
    },
    {
      "name": "animations",
      "rootUri": "file:///Users/holy/.pub-cache/hosted/pub.dev/animations-2.0.7",
      "packageUri": "lib/",
      "languageVersion": "2.12"
    },
    {
      "name": "args",
      "rootUri": "file:///Users/holy/.pub-cache/hosted/pub.dev/args-2.4.0",
      "packageUri": "lib/",
      "languageVersion": "2.18"
    },
    {
      "name": "assets_audio_player",
      "rootUri": "file:///Users/holy/.pub-cache/hosted/pub.dev/assets_audio_player-3.0.6",
      "packageUri": "lib/",
      "languageVersion": "2.12"
    },
    {
      "name": "assets_audio_player_web",
      "rootUri": "file:///Users/holy/.pub-cache/hosted/pub.dev/assets_audio_player_web-3.0.6",
      "packageUri": "lib/",
      "languageVersion": "2.12"
    },
    {
      "name": "async",
      "rootUri": "file:///Users/holy/.pub-cache/hosted/pub.dev/async-2.10.0",
      "packageUri": "lib/",
      "languageVersion": "2.18"
    },
    {
      "name": "audio_session",
      "rootUri": "file:///Users/holy/.pub-cache/hosted/pub.dev/audio_session-0.1.13",
      "packageUri": "lib/",
      "languageVersion": "2.12"
    },
    {
      "name": "audioplayers",
      "rootUri": "file:///Users/holy/.pub-cache/hosted/pub.dev/audioplayers-0.20.1",
      "packageUri": "lib/",
      "languageVersion": "2.12"
    },
    {
      "name": "better_player",
      "rootUri": "file:///Users/holy/.pub-cache/hosted/pub.dev/better_player-0.0.83",
      "packageUri": "lib/",
      "languageVersion": "2.12"
    },
    {
      "name": "bloc",
      "rootUri": "file:///Users/holy/.pub-cache/hosted/pub.dev/bloc-8.1.1",
      "packageUri": "lib/",
      "languageVersion": "2.12"
    },
    {
      "name": "blurrycontainer",
      "rootUri": "file:///Users/holy/.pub-cache/hosted/pub.dev/blurrycontainer-1.0.2",
      "packageUri": "lib/",
      "languageVersion": "2.12"
    },
    {
      "name": "boolean_selector",
      "rootUri": "file:///Users/holy/.pub-cache/hosted/pub.dev/boolean_selector-2.1.1",
      "packageUri": "lib/",
      "languageVersion": "2.17"
    },
    {
      "name": "cached_network_image",
      "rootUri": "file:///Users/holy/.pub-cache/hosted/pub.dev/cached_network_image-3.2.3",
      "packageUri": "lib/",
      "languageVersion": "2.18"
    },
    {
      "name": "cached_network_image_platform_interface",
      "rootUri": "file:///Users/holy/.pub-cache/hosted/pub.dev/cached_network_image_platform_interface-2.0.0",
      "packageUri": "lib/",
      "languageVersion": "2.18"
    },
    {
      "name": "cached_network_image_web",
      "rootUri": "file:///Users/holy/.pub-cache/hosted/pub.dev/cached_network_image_web-1.0.2",
      "packageUri": "lib/",
      "languageVersion": "2.18"
    },
    {
      "name": "characters",
      "rootUri": "file:///Users/holy/.pub-cache/hosted/pub.dev/characters-1.2.1",
      "packageUri": "lib/",
      "languageVersion": "2.12"
    },
    {
      "name": "chewie",
      "rootUri": "file:///Users/holy/.pub-cache/hosted/pub.dev/chewie-1.4.0",
      "packageUri": "lib/",
      "languageVersion": "2.13"
    },
    {
      "name": "clock",
      "rootUri": "file:///Users/holy/.pub-cache/hosted/pub.dev/clock-1.1.1",
      "packageUri": "lib/",
      "languageVersion": "2.12"
    },
    {
      "name": "cloud_firestore_platform_interface",
      "rootUri": "file:///Users/holy/.pub-cache/hosted/pub.dev/cloud_firestore_platform_interface-5.7.7",
      "packageUri": "lib/",
      "languageVersion": "2.16"
    },
    {
      "name": "cloud_firestore_web",
      "rootUri": "file:///Users/holy/.pub-cache/hosted/pub.dev/cloud_firestore_web-2.8.10",
      "packageUri": "lib/",
      "languageVersion": "2.16"
    },
    {
      "name": "collection",
      "rootUri": "file:///Users/holy/.pub-cache/hosted/pub.dev/collection-1.17.0",
      "packageUri": "lib/",
      "languageVersion": "2.12"
    },
    {
      "name": "comment_tree",
      "rootUri": "file:///Users/holy/.pub-cache/hosted/pub.dev/comment_tree-0.3.0",
      "packageUri": "lib/",
      "languageVersion": "2.12"
    },
    {
      "name": "connectivity_plus",
      "rootUri": "file:///Users/holy/.pub-cache/hosted/pub.dev/connectivity_plus-3.0.3",
      "packageUri": "lib/",
      "languageVersion": "2.12"
    },
    {
      "name": "connectivity_plus_platform_interface",
      "rootUri": "file:///Users/holy/.pub-cache/hosted/pub.dev/connectivity_plus_platform_interface-1.2.4",
      "packageUri": "lib/",
      "languageVersion": "2.12"
    },
    {
      "name": "convert",
      "rootUri": "file:///Users/holy/.pub-cache/hosted/pub.dev/convert-3.1.1",
      "packageUri": "lib/",
      "languageVersion": "2.18"
    },
    {
      "name": "cross_file",
      "rootUri": "file:///Users/holy/.pub-cache/hosted/pub.dev/cross_file-0.3.3+4",
      "packageUri": "lib/",
      "languageVersion": "2.17"
    },
    {
      "name": "crypto",
      "rootUri": "file:///Users/holy/.pub-cache/hosted/pub.dev/crypto-3.0.2",
      "packageUri": "lib/",
      "languageVersion": "2.14"
    },
    {
      "name": "csslib",
      "rootUri": "file:///Users/holy/.pub-cache/hosted/pub.dev/csslib-0.17.2",
      "packageUri": "lib/",
      "languageVersion": "2.12"
    },
    {
      "name": "cupertino_icons",
      "rootUri": "file:///Users/holy/.pub-cache/hosted/pub.dev/cupertino_icons-1.0.5",
      "packageUri": "lib/",
      "languageVersion": "2.12"
    },
    {
      "name": "dbus",
      "rootUri": "file:///Users/holy/.pub-cache/hosted/pub.dev/dbus-0.7.8",
      "packageUri": "lib/",
      "languageVersion": "2.15"
    },
    {
      "name": "dots_indicator",
      "rootUri": "file:///Users/holy/.pub-cache/hosted/pub.dev/dots_indicator-2.1.0",
      "packageUri": "lib/",
      "languageVersion": "2.12"
    },
    {
      "name": "dotted_border",
      "rootUri": "file:///Users/holy/.pub-cache/hosted/pub.dev/dotted_border-2.0.0+3",
      "packageUri": "lib/",
      "languageVersion": "2.12"
    },
    {
      "name": "dotted_line",
      "rootUri": "file:///Users/holy/.pub-cache/hosted/pub.dev/dotted_line-3.1.0",
      "packageUri": "lib/",
      "languageVersion": "2.12"
    },
    {
      "name": "dropdown_button2",
      "rootUri": "file:///Users/holy/.pub-cache/hosted/pub.dev/dropdown_button2-1.9.4",
      "packageUri": "lib/",
      "languageVersion": "2.17"
    },
    {
      "name": "easy_localization",
      "rootUri": "file:///Users/holy/.pub-cache/hosted/pub.dev/easy_localization-3.0.1",
      "packageUri": "lib/",
      "languageVersion": "2.12"
    },
    {
      "name": "easy_logger",
      "rootUri": "file:///Users/holy/.pub-cache/hosted/pub.dev/easy_logger-0.0.2",
      "packageUri": "lib/",
      "languageVersion": "2.12"
    },
    {
      "name": "equatable",
      "rootUri": "file:///Users/holy/.pub-cache/hosted/pub.dev/equatable-2.0.5",
      "packageUri": "lib/",
      "languageVersion": "2.12"
    },
    {
      "name": "expandable_text",
      "rootUri": "file:///Users/holy/.pub-cache/hosted/pub.dev/expandable_text-2.3.0",
      "packageUri": "lib/",
      "languageVersion": "2.12"
    },
    {
      "name": "fake_async",
      "rootUri": "file:///Users/holy/.pub-cache/hosted/pub.dev/fake_async-1.3.1",
      "packageUri": "lib/",
      "languageVersion": "2.12"
    },
    {
      "name": "ffi",
      "rootUri": "file:///Users/holy/.pub-cache/hosted/pub.dev/ffi-2.0.1",
      "packageUri": "lib/",
      "languageVersion": "2.17"
    },
    {
      "name": "file",
      "rootUri": "file:///Users/holy/.pub-cache/hosted/pub.dev/file-6.1.4",
      "packageUri": "lib/",
      "languageVersion": "2.12"
    },
    {
      "name": "file_picker",
      "rootUri": "file:///Users/holy/.pub-cache/hosted/pub.dev/file_picker-5.2.6",
      "packageUri": "lib/",
      "languageVersion": "2.17"
    },
    {
      "name": "firebase_auth",
      "rootUri": "file:///Users/holy/.pub-cache/hosted/pub.dev/firebase_auth-3.11.2",
      "packageUri": "lib/",
      "languageVersion": "2.16"
    },
    {
      "name": "firebase_auth_platform_interface",
      "rootUri": "file:///Users/holy/.pub-cache/hosted/pub.dev/firebase_auth_platform_interface-6.10.1",
      "packageUri": "lib/",
      "languageVersion": "2.16"
    },
    {
      "name": "firebase_auth_web",
      "rootUri": "file:///Users/holy/.pub-cache/hosted/pub.dev/firebase_auth_web-4.6.1",
      "packageUri": "lib/",
      "languageVersion": "2.16"
    },
    {
      "name": "firebase_core",
      "rootUri": "file:///Users/holy/.pub-cache/hosted/pub.dev/firebase_core-1.24.0",
      "packageUri": "lib/",
      "languageVersion": "2.16"
    },
    {
      "name": "firebase_core_platform_interface",
      "rootUri": "file:///Users/holy/.pub-cache/hosted/pub.dev/firebase_core_platform_interface-4.5.1",
      "packageUri": "lib/",
      "languageVersion": "2.16"
    },
    {
      "name": "firebase_core_web",
      "rootUri": "file:///Users/holy/.pub-cache/hosted/pub.dev/firebase_core_web-1.7.3",
      "packageUri": "lib/",
      "languageVersion": "2.16"
    },
    {
      "name": "firebase_messaging",
      "rootUri": "file:///Users/holy/.pub-cache/hosted/pub.dev/firebase_messaging-12.0.3",
      "packageUri": "lib/",
      "languageVersion": "2.16"
    },
    {
      "name": "firebase_messaging_platform_interface",
      "rootUri": "file:///Users/holy/.pub-cache/hosted/pub.dev/firebase_messaging_platform_interface-4.2.0",
      "packageUri": "lib/",
      "languageVersion": "2.16"
    },
    {
      "name": "firebase_messaging_web",
      "rootUri": "file:///Users/holy/.pub-cache/hosted/pub.dev/firebase_messaging_web-3.2.0",
      "packageUri": "lib/",
      "languageVersion": "2.16"
    },
    {
      "name": "firebase_remote_config",
      "rootUri": "file:///Users/holy/.pub-cache/hosted/pub.dev/firebase_remote_config-2.0.20",
      "packageUri": "lib/",
      "languageVersion": "2.16"
    },
    {
      "name": "firebase_remote_config_platform_interface",
      "rootUri": "file:///Users/holy/.pub-cache/hosted/pub.dev/firebase_remote_config_platform_interface-1.1.19",
      "packageUri": "lib/",
      "languageVersion": "2.16"
    },
    {
      "name": "firebase_remote_config_web",
      "rootUri": "file:///Users/holy/.pub-cache/hosted/pub.dev/firebase_remote_config_web-1.1.8",
      "packageUri": "lib/",
      "languageVersion": "2.16"
    },
    {
      "name": "flutter",
      "rootUri": "file:///Users/holy/flutter/packages/flutter",
      "packageUri": "lib/",
      "languageVersion": "2.17"
    },
    {
      "name": "flutter_audio_rec",
      "rootUri": "file:///Users/holy/.pub-cache/hosted/pub.dev/flutter_audio_rec-1.0.8",
      "packageUri": "lib/",
      "languageVersion": "2.12"
    },
    {
      "name": "flutter_audio_waveforms",
      "rootUri": "file:///Users/holy/.pub-cache/hosted/pub.dev/flutter_audio_waveforms-1.2.1+8",
      "packageUri": "lib/",
      "languageVersion": "2.17"
    },
    {
      "name": "flutter_bloc",
      "rootUri": "file:///Users/holy/.pub-cache/hosted/pub.dev/flutter_bloc-8.1.2",
      "packageUri": "lib/",
      "languageVersion": "2.12"
    },
    {
      "name": "flutter_blurhash",
      "rootUri": "file:///Users/holy/.pub-cache/hosted/pub.dev/flutter_blurhash-0.7.0",
      "packageUri": "lib/",
      "languageVersion": "2.15"
    },
    {
      "name": "flutter_cache_manager",
      "rootUri": "file:///Users/holy/.pub-cache/hosted/pub.dev/flutter_cache_manager-3.3.0",
      "packageUri": "lib/",
      "languageVersion": "2.12"
    },
    {
      "name": "flutter_inappwebview",
      "rootUri": "file:///Users/holy/.pub-cache/hosted/pub.dev/flutter_inappwebview-5.7.2+3",
      "packageUri": "lib/",
      "languageVersion": "2.14"
    },
    {
      "name": "flutter_lints",
      "rootUri": "file:///Users/holy/.pub-cache/hosted/pub.dev/flutter_lints-2.0.1",
      "packageUri": "lib/",
      "languageVersion": "2.17"
    },
    {
      "name": "flutter_localizations",
      "rootUri": "file:///Users/holy/flutter/packages/flutter_localizations",
      "packageUri": "lib/",
      "languageVersion": "2.17"
    },
    {
      "name": "flutter_native_image",
      "rootUri": "file:///Users/holy/.pub-cache/hosted/pub.dev/flutter_native_image-0.0.6+1",
      "packageUri": "lib/",
      "languageVersion": "2.12"
    },
    {
      "name": "flutter_plugin_android_lifecycle",
      "rootUri": "file:///Users/holy/.pub-cache/hosted/pub.dev/flutter_plugin_android_lifecycle-2.0.9",
      "packageUri": "lib/",
      "languageVersion": "2.12"
    },
    {
      "name": "flutter_reaction_button",
      "rootUri": "file:///Users/holy/.pub-cache/hosted/pub.dev/flutter_reaction_button-2.0.1+2",
      "packageUri": "lib/",
      "languageVersion": "2.12"
    },
    {
      "name": "flutter_svg",
      "rootUri": "file:///Users/holy/.pub-cache/hosted/pub.dev/flutter_svg-1.1.6",
      "packageUri": "lib/",
      "languageVersion": "2.17"
    },
    {
      "name": "flutter_test",
      "rootUri": "file:///Users/holy/flutter/packages/flutter_test",
      "packageUri": "lib/",
      "languageVersion": "2.17"
    },
    {
      "name": "flutter_voice_processor",
      "rootUri": "file:///Users/holy/.pub-cache/hosted/pub.dev/flutter_voice_processor-1.0.9",
      "packageUri": "lib/",
      "languageVersion": "2.12"
    },
    {
      "name": "flutter_web_plugins",
      "rootUri": "file:///Users/holy/flutter/packages/flutter_web_plugins",
      "packageUri": "lib/",
      "languageVersion": "2.17"
    },
    {
      "name": "flutter_widget_from_html",
      "rootUri": "file:///Users/holy/.pub-cache/hosted/pub.dev/flutter_widget_from_html-0.8.5",
      "packageUri": "lib/",
      "languageVersion": "2.14"
    },
    {
      "name": "flutter_widget_from_html_core",
      "rootUri": "file:///Users/holy/.pub-cache/hosted/pub.dev/flutter_widget_from_html_core-0.8.5+3",
      "packageUri": "lib/",
      "languageVersion": "2.12"
    },
    {
      "name": "fluttertoast",
      "rootUri": "file:///Users/holy/.pub-cache/hosted/pub.dev/fluttertoast-8.2.1",
      "packageUri": "lib/",
      "languageVersion": "2.12"
    },
    {
      "name": "full_screen_image_null_safe",
      "rootUri": "file:///Users/holy/.pub-cache/hosted/pub.dev/full_screen_image_null_safe-2.0.0",
      "packageUri": "lib/",
      "languageVersion": "2.12"
    },
    {
      "name": "fwfh_cached_network_image",
      "rootUri": "file:///Users/holy/.pub-cache/hosted/pub.dev/fwfh_cached_network_image-0.7.0+4",
      "packageUri": "lib/",
      "languageVersion": "2.13"
    },
    {
      "name": "fwfh_chewie",
      "rootUri": "file:///Users/holy/.pub-cache/hosted/pub.dev/fwfh_chewie-0.7.1+1",
      "packageUri": "lib/",
      "languageVersion": "2.14"
    },
    {
      "name": "fwfh_just_audio",
      "rootUri": "file:///Users/holy/.pub-cache/hosted/pub.dev/fwfh_just_audio-0.6.2+2",
      "packageUri": "lib/",
      "languageVersion": "2.12"
    },
    {
      "name": "fwfh_selectable_text",
      "rootUri": "file:///Users/holy/.pub-cache/hosted/pub.dev/fwfh_selectable_text-0.8.3+1",
      "packageUri": "lib/",
      "languageVersion": "2.12"
    },
    {
      "name": "fwfh_svg",
      "rootUri": "file:///Users/holy/.pub-cache/hosted/pub.dev/fwfh_svg-0.7.2+1",
      "packageUri": "lib/",
      "languageVersion": "2.14"
    },
    {
      "name": "fwfh_text_style",
      "rootUri": "file:///Users/holy/.pub-cache/hosted/pub.dev/fwfh_text_style-2.22.08+1",
      "packageUri": "lib/",
      "languageVersion": "2.12"
    },
    {
      "name": "fwfh_url_launcher",
      "rootUri": "file:///Users/holy/.pub-cache/hosted/pub.dev/fwfh_url_launcher-0.6.1+3",
      "packageUri": "lib/",
      "languageVersion": "2.12"
    },
    {
      "name": "fwfh_webview",
      "rootUri": "file:///Users/holy/.pub-cache/hosted/pub.dev/fwfh_webview-0.6.2+5",
      "packageUri": "lib/",
      "languageVersion": "2.14"
    },
    {
      "name": "gallery_saver",
      "rootUri": "file:///Users/holy/.pub-cache/hosted/pub.dev/gallery_saver-2.3.2",
      "packageUri": "lib/",
      "languageVersion": "2.12"
    },
    {
      "name": "html",
      "rootUri": "file:///Users/holy/.pub-cache/hosted/pub.dev/html-0.15.2",
      "packageUri": "lib/",
      "languageVersion": "2.17"
    },
    {
      "name": "http",
      "rootUri": "file:///Users/holy/.pub-cache/hosted/pub.dev/http-0.13.5",
      "packageUri": "lib/",
      "languageVersion": "2.14"
    },
    {
      "name": "http_parser",
      "rootUri": "file:///Users/holy/.pub-cache/hosted/pub.dev/http_parser-4.0.2",
      "packageUri": "lib/",
      "languageVersion": "2.12"
    },
    {
      "name": "image_gallery_saver",
      "rootUri": "file:///Users/holy/.pub-cache/hosted/pub.dev/image_gallery_saver-1.7.1",
      "packageUri": "lib/",
      "languageVersion": "2.12"
    },
    {
      "name": "image_picker",
      "rootUri": "file:///Users/holy/.pub-cache/hosted/pub.dev/image_picker-0.8.7",
      "packageUri": "lib/",
      "languageVersion": "2.17"
    },
    {
      "name": "image_picker_android",
      "rootUri": "file:///Users/holy/.pub-cache/hosted/pub.dev/image_picker_android-0.8.6+6",
      "packageUri": "lib/",
      "languageVersion": "2.17"
    },
    {
      "name": "image_picker_for_web",
      "rootUri": "file:///Users/holy/.pub-cache/hosted/pub.dev/image_picker_for_web-2.1.12",
      "packageUri": "lib/",
      "languageVersion": "2.17"
    },
    {
      "name": "image_picker_ios",
      "rootUri": "file:///Users/holy/.pub-cache/hosted/pub.dev/image_picker_ios-0.8.7+1",
      "packageUri": "lib/",
      "languageVersion": "2.18"
    },
    {
      "name": "image_picker_platform_interface",
      "rootUri": "file:///Users/holy/.pub-cache/hosted/pub.dev/image_picker_platform_interface-2.6.3",
      "packageUri": "lib/",
      "languageVersion": "2.12"
    },
    {
      "name": "indexed_list_view",
      "rootUri": "file:///Users/holy/.pub-cache/hosted/pub.dev/indexed_list_view-2.0.2",
      "packageUri": "lib/",
      "languageVersion": "2.13"
    },
    {
      "name": "internet_connection_checker",
      "rootUri": "file:///Users/holy/.pub-cache/hosted/pub.dev/internet_connection_checker-1.0.0+1",
      "packageUri": "lib/",
      "languageVersion": "2.18"
    },
    {
      "name": "intl",
      "rootUri": "file:///Users/holy/.pub-cache/hosted/pub.dev/intl-0.17.0",
      "packageUri": "lib/",
      "languageVersion": "2.12"
    },
    {
      "name": "js",
      "rootUri": "file:///Users/holy/.pub-cache/hosted/pub.dev/js-0.6.5",
      "packageUri": "lib/",
      "languageVersion": "2.16"
    },
    {
      "name": "just_audio",
      "rootUri": "file:///Users/holy/.pub-cache/hosted/pub.dev/just_audio-0.9.32",
      "packageUri": "lib/",
      "languageVersion": "2.12"
    },
    {
      "name": "just_audio_platform_interface",
      "rootUri": "file:///Users/holy/.pub-cache/hosted/pub.dev/just_audio_platform_interface-4.2.0",
      "packageUri": "lib/",
      "languageVersion": "2.12"
    },
    {
      "name": "just_audio_web",
      "rootUri": "file:///Users/holy/.pub-cache/hosted/pub.dev/just_audio_web-0.4.7",
      "packageUri": "lib/",
      "languageVersion": "2.12"
    },
    {
      "name": "lazy_load_scrollview",
      "rootUri": "file:///Users/holy/.pub-cache/hosted/pub.dev/lazy_load_scrollview-1.3.0",
      "packageUri": "lib/",
      "languageVersion": "2.12"
    },
    {
      "name": "lints",
      "rootUri": "file:///Users/holy/.pub-cache/hosted/pub.dev/lints-2.0.1",
      "packageUri": "lib/",
      "languageVersion": "2.17"
    },
    {
      "name": "matcher",
      "rootUri": "file:///Users/holy/.pub-cache/hosted/pub.dev/matcher-0.12.13",
      "packageUri": "lib/",
      "languageVersion": "2.18"
    },
    {
      "name": "material_color_utilities",
      "rootUri": "file:///Users/holy/.pub-cache/hosted/pub.dev/material_color_utilities-0.2.0",
      "packageUri": "lib/",
      "languageVersion": "2.13"
    },
    {
      "name": "meta",
      "rootUri": "file:///Users/holy/.pub-cache/hosted/pub.dev/meta-1.8.0",
      "packageUri": "lib/",
      "languageVersion": "2.12"
    },
    {
      "name": "mime",
      "rootUri": "file:///Users/holy/.pub-cache/hosted/pub.dev/mime-1.0.4",
      "packageUri": "lib/",
      "languageVersion": "2.18"
    },
    {
      "name": "mobile_scanner",
      "rootUri": "file:///Users/holy/.pub-cache/hosted/pub.dev/mobile_scanner-2.1.0",
      "packageUri": "lib/",
      "languageVersion": "2.17"
    },
    {
      "name": "nested",
      "rootUri": "file:///Users/holy/.pub-cache/hosted/pub.dev/nested-1.0.0",
      "packageUri": "lib/",
      "languageVersion": "2.12"
    },
    {
      "name": "new_im_animations",
      "rootUri": "file:///Users/holy/.pub-cache/hosted/pub.dev/new_im_animations-0.1.1",
      "packageUri": "lib/",
      "languageVersion": "2.12"
    },
    {
      "name": "nm",
      "rootUri": "file:///Users/holy/.pub-cache/hosted/pub.dev/nm-0.5.0",
      "packageUri": "lib/",
      "languageVersion": "2.12"
    },
    {
      "name": "octo_image",
      "rootUri": "file:///Users/holy/.pub-cache/hosted/pub.dev/octo_image-1.0.2",
      "packageUri": "lib/",
      "languageVersion": "2.12"
    },
    {
      "name": "page_transition",
      "rootUri": "file:///Users/holy/.pub-cache/hosted/pub.dev/page_transition-2.0.9",
      "packageUri": "lib/",
      "languageVersion": "2.12"
    },
    {
      "name": "path",
      "rootUri": "file:///Users/holy/.pub-cache/hosted/pub.dev/path-1.8.2",
      "packageUri": "lib/",
      "languageVersion": "2.12"
    },
    {
      "name": "path_drawing",
      "rootUri": "file:///Users/holy/.pub-cache/hosted/pub.dev/path_drawing-1.0.1",
      "packageUri": "lib/",
      "languageVersion": "2.12"
    },
    {
      "name": "path_parsing",
      "rootUri": "file:///Users/holy/.pub-cache/hosted/pub.dev/path_parsing-1.0.1",
      "packageUri": "lib/",
      "languageVersion": "2.12"
    },
    {
      "name": "path_provider",
      "rootUri": "file:///Users/holy/.pub-cache/hosted/pub.dev/path_provider-2.0.14",
      "packageUri": "lib/",
      "languageVersion": "2.17"
    },
    {
      "name": "path_provider_android",
      "rootUri": "file:///Users/holy/.pub-cache/hosted/pub.dev/path_provider_android-2.0.24",
      "packageUri": "lib/",
      "languageVersion": "2.17"
    },
    {
      "name": "path_provider_foundation",
      "rootUri": "file:///Users/holy/.pub-cache/hosted/pub.dev/path_provider_foundation-2.2.0",
      "packageUri": "lib/",
      "languageVersion": "2.17"
    },
    {
      "name": "path_provider_linux",
      "rootUri": "file:///Users/holy/.pub-cache/hosted/pub.dev/path_provider_linux-2.1.10",
      "packageUri": "lib/",
      "languageVersion": "2.17"
    },
    {
      "name": "path_provider_platform_interface",
      "rootUri": "file:///Users/holy/.pub-cache/hosted/pub.dev/path_provider_platform_interface-2.0.6",
      "packageUri": "lib/",
      "languageVersion": "2.12"
    },
    {
      "name": "path_provider_windows",
      "rootUri": "file:///Users/holy/.pub-cache/hosted/pub.dev/path_provider_windows-2.1.5",
      "packageUri": "lib/",
      "languageVersion": "2.17"
    },
    {
      "name": "pedantic",
      "rootUri": "file:///Users/holy/.pub-cache/hosted/pub.dev/pedantic-1.11.1",
      "packageUri": "lib/",
      "languageVersion": "2.12"
    },
    {
      "name": "permission_handler",
      "rootUri": "file:///Users/holy/.pub-cache/hosted/pub.dev/permission_handler-10.2.0",
      "packageUri": "lib/",
      "languageVersion": "2.15"
    },
    {
      "name": "permission_handler_android",
      "rootUri": "file:///Users/holy/.pub-cache/hosted/pub.dev/permission_handler_android-10.2.0",
      "packageUri": "lib/",
      "languageVersion": "2.15"
    },
    {
      "name": "permission_handler_apple",
      "rootUri": "file:///Users/holy/.pub-cache/hosted/pub.dev/permission_handler_apple-9.0.7",
      "packageUri": "lib/",
      "languageVersion": "2.15"
    },
    {
      "name": "permission_handler_platform_interface",
      "rootUri": "file:///Users/holy/.pub-cache/hosted/pub.dev/permission_handler_platform_interface-3.9.0",
      "packageUri": "lib/",
      "languageVersion": "2.14"
    },
    {
      "name": "permission_handler_windows",
      "rootUri": "file:///Users/holy/.pub-cache/hosted/pub.dev/permission_handler_windows-0.1.2",
      "packageUri": "lib/",
      "languageVersion": "2.12"
    },
    {
      "name": "petitparser",
      "rootUri": "file:///Users/holy/.pub-cache/hosted/pub.dev/petitparser-5.1.0",
      "packageUri": "lib/",
      "languageVersion": "2.18"
    },
    {
      "name": "photo_view",
      "rootUri": "file:///Users/holy/.pub-cache/hosted/pub.dev/photo_view-0.14.0",
      "packageUri": "lib/",
      "languageVersion": "2.12"
    },
    {
      "name": "pinput",
      "rootUri": "file:///Users/holy/.pub-cache/hosted/pub.dev/pinput-2.2.31",
      "packageUri": "lib/",
      "languageVersion": "2.15"
    },
    {
      "name": "platform",
      "rootUri": "file:///Users/holy/.pub-cache/hosted/pub.dev/platform-3.1.0",
      "packageUri": "lib/",
      "languageVersion": "2.12"
    },
    {
      "name": "plugin_platform_interface",
      "rootUri": "file:///Users/holy/.pub-cache/hosted/pub.dev/plugin_platform_interface-2.1.4",
      "packageUri": "lib/",
      "languageVersion": "2.17"
    },
    {
      "name": "process",
      "rootUri": "file:///Users/holy/.pub-cache/hosted/pub.dev/process-4.2.4",
      "packageUri": "lib/",
      "languageVersion": "2.14"
    },
    {
      "name": "provider",
      "rootUri": "file:///Users/holy/.pub-cache/hosted/pub.dev/provider-6.0.5",
      "packageUri": "lib/",
      "languageVersion": "2.12"
    },
    {
      "name": "record",
      "rootUri": "file:///Users/holy/.pub-cache/hosted/pub.dev/record-4.4.4",
      "packageUri": "lib/",
      "languageVersion": "2.15"
    },
    {
      "name": "record_linux",
      "rootUri": "file:///Users/holy/.pub-cache/hosted/pub.dev/record_linux-0.4.1",
      "packageUri": "lib/",
      "languageVersion": "2.15"
    },
    {
      "name": "record_macos",
      "rootUri": "file:///Users/holy/.pub-cache/hosted/pub.dev/record_macos-0.2.2",
      "packageUri": "lib/",
      "languageVersion": "2.15"
    },
    {
      "name": "record_platform_interface",
      "rootUri": "file:///Users/holy/.pub-cache/hosted/pub.dev/record_platform_interface-0.5.0",
      "packageUri": "lib/",
      "languageVersion": "2.15"
    },
    {
      "name": "record_web",
      "rootUri": "file:///Users/holy/.pub-cache/hosted/pub.dev/record_web-0.5.0",
      "packageUri": "lib/",
      "languageVersion": "2.15"
    },
    {
      "name": "record_windows",
      "rootUri": "file:///Users/holy/.pub-cache/hosted/pub.dev/record_windows-0.7.1",
      "packageUri": "lib/",
      "languageVersion": "2.15"
    },
    {
      "name": "rxdart",
      "rootUri": "file:///Users/holy/.pub-cache/hosted/pub.dev/rxdart-0.27.7",
      "packageUri": "lib/",
      "languageVersion": "2.12"
    },
    {
      "name": "screenshot",
      "rootUri": "file:///Users/holy/.pub-cache/hosted/pub.dev/screenshot-1.3.0",
      "packageUri": "lib/",
      "languageVersion": "2.12"
    },
    {
      "name": "share_plus",
      "rootUri": "file:///Users/holy/.pub-cache/hosted/pub.dev/share_plus-6.3.1",
      "packageUri": "lib/",
      "languageVersion": "2.12"
    },
    {
      "name": "share_plus_platform_interface",
      "rootUri": "file:///Users/holy/.pub-cache/hosted/pub.dev/share_plus_platform_interface-3.2.0",
      "packageUri": "lib/",
      "languageVersion": "2.12"
    },
    {
      "name": "shared_preferences",
      "rootUri": "file:///Users/holy/.pub-cache/hosted/pub.dev/shared_preferences-2.0.20",
      "packageUri": "lib/",
      "languageVersion": "2.17"
    },
    {
      "name": "shared_preferences_android",
      "rootUri": "file:///Users/holy/.pub-cache/hosted/pub.dev/shared_preferences_android-2.0.17",
      "packageUri": "lib/",
      "languageVersion": "2.17"
    },
    {
      "name": "shared_preferences_foundation",
      "rootUri": "file:///Users/holy/.pub-cache/hosted/pub.dev/shared_preferences_foundation-2.1.5",
      "packageUri": "lib/",
      "languageVersion": "2.17"
    },
    {
      "name": "shared_preferences_linux",
      "rootUri": "file:///Users/holy/.pub-cache/hosted/pub.dev/shared_preferences_linux-2.1.5",
      "packageUri": "lib/",
      "languageVersion": "2.17"
    },
    {
      "name": "shared_preferences_platform_interface",
      "rootUri": "file:///Users/holy/.pub-cache/hosted/pub.dev/shared_preferences_platform_interface-2.1.1",
      "packageUri": "lib/",
      "languageVersion": "2.12"
    },
    {
      "name": "shared_preferences_web",
      "rootUri": "file:///Users/holy/.pub-cache/hosted/pub.dev/shared_preferences_web-2.0.6",
      "packageUri": "lib/",
      "languageVersion": "2.17"
    },
    {
      "name": "shared_preferences_windows",
      "rootUri": "file:///Users/holy/.pub-cache/hosted/pub.dev/shared_preferences_windows-2.1.5",
      "packageUri": "lib/",
      "languageVersion": "2.17"
    },
    {
      "name": "shimmer",
      "rootUri": "file:///Users/holy/.pub-cache/hosted/pub.dev/shimmer-2.0.0",
      "packageUri": "lib/",
      "languageVersion": "2.12"
    },
    {
      "name": "sky_engine",
      "rootUri": "file:///Users/holy/flutter/bin/cache/pkg/sky_engine",
      "packageUri": "lib/",
      "languageVersion": "2.12"
    },
    {
      "name": "smart_auth",
      "rootUri": "file:///Users/holy/.pub-cache/hosted/pub.dev/smart_auth-1.0.8",
      "packageUri": "lib/",
      "languageVersion": "2.16"
    },
    {
      "name": "source_span",
      "rootUri": "file:///Users/holy/.pub-cache/hosted/pub.dev/source_span-1.9.1",
      "packageUri": "lib/",
      "languageVersion": "2.14"
    },
    {
      "name": "sqflite",
      "rootUri": "file:///Users/holy/.pub-cache/hosted/pub.dev/sqflite-2.2.6",
      "packageUri": "lib/",
      "languageVersion": "2.18"
    },
    {
      "name": "sqflite_common",
      "rootUri": "file:///Users/holy/.pub-cache/hosted/pub.dev/sqflite_common-2.4.3",
      "packageUri": "lib/",
      "languageVersion": "2.18"
    },
    {
      "name": "stack_trace",
      "rootUri": "file:///Users/holy/.pub-cache/hosted/pub.dev/stack_trace-1.11.0",
      "packageUri": "lib/",
      "languageVersion": "2.18"
    },
    {
      "name": "stream_channel",
      "rootUri": "file:///Users/holy/.pub-cache/hosted/pub.dev/stream_channel-2.1.1",
      "packageUri": "lib/",
      "languageVersion": "2.14"
    },
    {
      "name": "string_scanner",
      "rootUri": "file:///Users/holy/.pub-cache/hosted/pub.dev/string_scanner-1.2.0",
      "packageUri": "lib/",
      "languageVersion": "2.18"
    },
    {
      "name": "syncfusion_flutter_core",
      "rootUri": "file:///Users/holy/.pub-cache/hosted/pub.dev/syncfusion_flutter_core-20.4.54",
      "packageUri": "lib/",
      "languageVersion": "2.17"
    },
    {
      "name": "syncfusion_flutter_datepicker",
      "rootUri": "file:///Users/holy/.pub-cache/hosted/pub.dev/syncfusion_flutter_datepicker-20.4.54",
      "packageUri": "lib/",
      "languageVersion": "2.17"
    },
    {
      "name": "syncfusion_flutter_pdf",
      "rootUri": "file:///Users/holy/.pub-cache/hosted/pub.dev/syncfusion_flutter_pdf-20.4.54",
      "packageUri": "lib/",
      "languageVersion": "2.17"
    },
    {
      "name": "syncfusion_flutter_pdfviewer",
      "rootUri": "file:///Users/holy/.pub-cache/hosted/pub.dev/syncfusion_flutter_pdfviewer-20.4.54",
      "packageUri": "lib/",
      "languageVersion": "2.17"
    },
    {
      "name": "syncfusion_flutter_sliders",
      "rootUri": "file:///Users/holy/.pub-cache/hosted/pub.dev/syncfusion_flutter_sliders-20.4.54",
      "packageUri": "lib/",
      "languageVersion": "2.17"
    },
    {
      "name": "syncfusion_pdfviewer_macos",
      "rootUri": "file:///Users/holy/.pub-cache/hosted/pub.dev/syncfusion_pdfviewer_macos-20.4.54",
      "packageUri": "lib/",
      "languageVersion": "2.17"
    },
    {
      "name": "syncfusion_pdfviewer_platform_interface",
      "rootUri": "file:///Users/holy/.pub-cache/hosted/pub.dev/syncfusion_pdfviewer_platform_interface-20.4.54",
      "packageUri": "lib/",
      "languageVersion": "2.17"
    },
    {
      "name": "syncfusion_pdfviewer_web",
      "rootUri": "file:///Users/holy/.pub-cache/hosted/pub.dev/syncfusion_pdfviewer_web-20.4.54",
      "packageUri": "lib/",
      "languageVersion": "2.17"
    },
    {
      "name": "syncfusion_pdfviewer_windows",
      "rootUri": "file:///Users/holy/.pub-cache/hosted/pub.dev/syncfusion_pdfviewer_windows-20.4.54",
      "packageUri": "lib/",
      "languageVersion": "2.17"
    },
    {
      "name": "synchronized",
      "rootUri": "file:///Users/holy/.pub-cache/hosted/pub.dev/synchronized-3.0.1",
      "packageUri": "lib/",
      "languageVersion": "2.18"
    },
    {
      "name": "term_glyph",
      "rootUri": "file:///Users/holy/.pub-cache/hosted/pub.dev/term_glyph-1.2.1",
      "packageUri": "lib/",
      "languageVersion": "2.12"
    },
    {
      "name": "test_api",
      "rootUri": "file:///Users/holy/.pub-cache/hosted/pub.dev/test_api-0.4.16",
      "packageUri": "lib/",
      "languageVersion": "2.18"
    },
    {
      "name": "typed_data",
      "rootUri": "file:///Users/holy/.pub-cache/hosted/pub.dev/typed_data-1.3.1",
      "packageUri": "lib/",
      "languageVersion": "2.12"
    },
    {
      "name": "universal_platform",
      "rootUri": "file:///Users/holy/.pub-cache/hosted/pub.dev/universal_platform-1.0.0+1",
      "packageUri": "lib/",
      "languageVersion": "2.12"
    },
    {
      "name": "url_launcher",
      "rootUri": "file:///Users/holy/.pub-cache/hosted/pub.dev/url_launcher-6.1.10",
      "packageUri": "lib/",
      "languageVersion": "2.14"
    },
    {
      "name": "url_launcher_android",
      "rootUri": "file:///Users/holy/.pub-cache/hosted/pub.dev/url_launcher_android-6.0.26",
      "packageUri": "lib/",
      "languageVersion": "2.17"
    },
    {
      "name": "url_launcher_ios",
      "rootUri": "file:///Users/holy/.pub-cache/hosted/pub.dev/url_launcher_ios-6.1.3",
      "packageUri": "lib/",
      "languageVersion": "2.18"
    },
    {
      "name": "url_launcher_linux",
      "rootUri": "file:///Users/holy/.pub-cache/hosted/pub.dev/url_launcher_linux-3.0.4",
      "packageUri": "lib/",
      "languageVersion": "2.17"
    },
    {
      "name": "url_launcher_macos",
      "rootUri": "file:///Users/holy/.pub-cache/hosted/pub.dev/url_launcher_macos-3.0.4",
      "packageUri": "lib/",
      "languageVersion": "2.17"
    },
    {
      "name": "url_launcher_platform_interface",
      "rootUri": "file:///Users/holy/.pub-cache/hosted/pub.dev/url_launcher_platform_interface-2.1.2",
      "packageUri": "lib/",
      "languageVersion": "2.12"
    },
    {
      "name": "url_launcher_web",
      "rootUri": "file:///Users/holy/.pub-cache/hosted/pub.dev/url_launcher_web-2.0.16",
      "packageUri": "lib/",
      "languageVersion": "2.17"
    },
    {
      "name": "url_launcher_windows",
      "rootUri": "file:///Users/holy/.pub-cache/hosted/pub.dev/url_launcher_windows-3.0.5",
      "packageUri": "lib/",
      "languageVersion": "2.17"
    },
    {
      "name": "uuid",
      "rootUri": "file:///Users/holy/.pub-cache/hosted/pub.dev/uuid-3.0.7",
      "packageUri": "lib/",
      "languageVersion": "2.12"
    },
    {
      "name": "vector_math",
      "rootUri": "file:///Users/holy/.pub-cache/hosted/pub.dev/vector_math-2.1.4",
      "packageUri": "lib/",
      "languageVersion": "2.14"
    },
    {
      "name": "video_player",
      "rootUri": "file:///Users/holy/.pub-cache/hosted/pub.dev/video_player-2.6.0",
      "packageUri": "lib/",
      "languageVersion": "2.17"
    },
    {
      "name": "video_player_android",
      "rootUri": "file:///Users/holy/.pub-cache/hosted/pub.dev/video_player_android-2.4.2",
      "packageUri": "lib/",
      "languageVersion": "2.17"
    },
    {
      "name": "video_player_avfoundation",
      "rootUri": "file:///Users/holy/.pub-cache/hosted/pub.dev/video_player_avfoundation-2.4.2",
      "packageUri": "lib/",
      "languageVersion": "2.18"
    },
    {
      "name": "video_player_platform_interface",
      "rootUri": "file:///Users/holy/.pub-cache/hosted/pub.dev/video_player_platform_interface-6.1.0",
      "packageUri": "lib/",
      "languageVersion": "2.17"
    },
    {
      "name": "video_player_web",
      "rootUri": "file:///Users/holy/.pub-cache/hosted/pub.dev/video_player_web-2.0.15",
      "packageUri": "lib/",
      "languageVersion": "2.17"
    },
    {
      "name": "visibility_detector",
      "rootUri": "file:///Users/holy/.pub-cache/hosted/pub.dev/visibility_detector-0.3.3",
      "packageUri": "lib/",
      "languageVersion": "2.12"
    },
    {
      "name": "voice_message_package",
      "rootUri": "file:///Users/holy/.pub-cache/hosted/pub.dev/voice_message_package-0.0.74",
      "packageUri": "lib/",
      "languageVersion": "2.15"
    },
    {
      "name": "wakelock",
      "rootUri": "file:///Users/holy/.pub-cache/hosted/pub.dev/wakelock-0.6.2",
      "packageUri": "lib/",
      "languageVersion": "2.12"
    },
    {
      "name": "wakelock_macos",
      "rootUri": "file:///Users/holy/.pub-cache/hosted/pub.dev/wakelock_macos-0.4.0",
      "packageUri": "lib/",
      "languageVersion": "2.12"
    },
    {
      "name": "wakelock_platform_interface",
      "rootUri": "file:///Users/holy/.pub-cache/hosted/pub.dev/wakelock_platform_interface-0.3.0",
      "packageUri": "lib/",
      "languageVersion": "2.12"
    },
    {
      "name": "wakelock_web",
      "rootUri": "file:///Users/holy/.pub-cache/hosted/pub.dev/wakelock_web-0.4.0",
      "packageUri": "lib/",
      "languageVersion": "2.12"
    },
    {
      "name": "wakelock_windows",
      "rootUri": "file:///Users/holy/.pub-cache/hosted/pub.dev/wakelock_windows-0.2.1",
      "packageUri": "lib/",
      "languageVersion": "2.12"
    },
    {
      "name": "webview_flutter",
      "rootUri": "file:///Users/holy/.pub-cache/hosted/pub.dev/webview_flutter-3.0.4",
      "packageUri": "lib/",
      "languageVersion": "2.14"
    },
    {
      "name": "webview_flutter_android",
      "rootUri": "file:///Users/holy/.pub-cache/hosted/pub.dev/webview_flutter_android-2.10.4",
      "packageUri": "lib/",
      "languageVersion": "2.14"
    },
    {
      "name": "webview_flutter_platform_interface",
      "rootUri": "file:///Users/holy/.pub-cache/hosted/pub.dev/webview_flutter_platform_interface-1.9.5",
      "packageUri": "lib/",
      "languageVersion": "2.12"
    },
    {
      "name": "webview_flutter_wkwebview",
      "rootUri": "file:///Users/holy/.pub-cache/hosted/pub.dev/webview_flutter_wkwebview-2.9.5",
      "packageUri": "lib/",
      "languageVersion": "2.17"
    },
    {
      "name": "win32",
      "rootUri": "file:///Users/holy/.pub-cache/hosted/pub.dev/win32-3.1.3",
      "packageUri": "lib/",
      "languageVersion": "2.17"
    },
    {
      "name": "xdg_directories",
      "rootUri": "file:///Users/holy/.pub-cache/hosted/pub.dev/xdg_directories-1.0.0",
      "packageUri": "lib/",
      "languageVersion": "2.17"
    },
    {
      "name": "xml",
      "rootUri": "file:///Users/holy/.pub-cache/hosted/pub.dev/xml-6.1.0",
      "packageUri": "lib/",
      "languageVersion": "2.17"
    },
    {
      "name": "youtube_player_flutter",
      "rootUri": "file:///Users/holy/.pub-cache/hosted/pub.dev/youtube_player_flutter-8.1.2",
      "packageUri": "lib/",
      "languageVersion": "2.17"
    },
    {
      "name": "youtube_player_iframe",
      "rootUri": "file:///Users/holy/.pub-cache/hosted/pub.dev/youtube_player_iframe-2.3.0",
      "packageUri": "lib/",
      "languageVersion": "2.17"
    },
    {
      "name": "zoom_widget",
      "rootUri": "file:///Users/holy/.pub-cache/hosted/pub.dev/zoom_widget-2.0.1",
      "packageUri": "lib/",
      "languageVersion": "2.12"
    },
    {
      "name": "camis_application_flutter",
      "rootUri": "../",
      "packageUri": "lib/",
      "languageVersion": "2.15"
    }
  ],
  "generated": "2023-04-03T05:01:06.086100Z",
  "generator": "pub",
  "generatorVersion": "2.19.5"
}
