<svg width="16" height="16" viewBox="0 0 16 16" fill="none" xmlns="http://www.w3.org/2000/svg">
<path d="M14.75 12.2728C14.75 12.5158 14.6959 12.7655 14.581 13.0085C14.4661 13.2515 14.3173 13.481 14.1213 13.697C13.7901 14.0615 13.4251 14.3248 13.0126 14.4935C12.607 14.6623 12.1676 14.75 11.6944 14.75C11.0049 14.75 10.268 14.588 9.49063 14.2573C8.71318 13.9265 7.9358 13.481 7.1651 12.9208C6.38771 12.3538 5.65085 11.726 4.9478 11.0308C4.2515 10.3288 3.62281 9.593 3.06171 8.8235C2.50738 8.054 2.06121 7.2845 1.73673 6.52175C1.41224 5.75225 1.25 5.0165 1.25 4.3145C1.25 3.8555 1.33112 3.41675 1.49337 3.01175C1.65561 2.6 1.9125 2.222 2.27078 1.8845C2.70343 1.45925 3.17664 1.25 3.67689 1.25C3.86617 1.25 4.05546 1.2905 4.22446 1.3715C4.40023 1.4525 4.55571 1.574 4.67739 1.7495L6.24574 3.95675C6.36743 4.1255 6.45531 4.28075 6.51612 4.42925C6.57702 4.571 6.61078 4.71275 6.61078 4.841C6.61078 5.003 6.56345 5.165 6.46883 5.32025C6.38094 5.4755 6.25251 5.6375 6.09026 5.7995L5.57649 6.33275C5.50213 6.407 5.46833 6.49475 5.46833 6.60275C5.46833 6.65675 5.47509 6.704 5.48861 6.758C5.50889 6.812 5.52917 6.8525 5.54269 6.893C5.66437 7.11575 5.87394 7.406 6.17138 7.757C6.47559 8.108 6.80008 8.46575 7.1516 8.8235C7.51663 9.18125 7.86815 9.512 8.2265 9.81575C8.57803 10.1127 8.86865 10.3152 9.09852 10.4367C9.13235 10.4502 9.17285 10.4705 9.22017 10.4908C9.27425 10.511 9.3284 10.5178 9.38922 10.5178C9.50412 10.5178 9.59202 10.4773 9.66635 10.403L10.1802 9.89675C10.3492 9.728 10.5114 9.59975 10.6669 9.51875C10.8223 9.42425 10.9779 9.377 11.1469 9.377C11.2753 9.377 11.4105 9.404 11.5592 9.46475C11.7079 9.5255 11.8634 9.61325 12.0325 9.728L14.27 11.3143C14.4458 11.4358 14.5675 11.5775 14.6419 11.7463C14.7094 11.915 14.75 12.0838 14.75 12.2728Z" stroke="#F1F9FF" stroke-width="1.5" stroke-miterlimit="10"/>
</svg>
