<svg width="101" height="100" viewBox="0 0 101 100" fill="none" xmlns="http://www.w3.org/2000/svg">
<g clip-path="url(#clip0_448_8268)">
<path d="M50.4655 0.599243C22.9244 0.599243 0.5979 22.7278 0.5979 50.0247C0.5979 77.3217 22.9244 99.4502 50.4655 99.4502C78.0066 99.4502 100.333 77.3217 100.333 50.0247C100.303 22.7399 77.9944 0.628783 50.4655 0.599243ZM67.088 60.6799C68.7766 62.2204 68.8857 64.8261 67.3315 66.4998C65.7772 68.1735 63.1482 68.2816 61.4595 66.7411C61.375 66.6641 61.294 66.5836 61.216 66.4998L50.4655 55.8486L39.719 66.4998C38.0681 68.0801 35.4374 68.0347 33.843 66.3984C32.2878 64.8023 32.2878 62.272 33.843 60.6759L44.5895 50.0247L33.843 39.3735C32.2486 37.7373 32.2944 35.1299 33.9453 33.5496C35.5557 32.0082 38.1087 32.0082 39.719 33.5496L50.4655 44.2008L61.216 33.5496C62.7703 31.8759 65.3993 31.7678 67.088 33.3083C68.7766 34.8488 68.8857 37.4544 67.3315 39.1281C67.2537 39.2119 67.1725 39.2922 67.088 39.3695L56.3415 50.0247L67.088 60.6799Z" fill="#CE0000"/>
</g>
<defs>
<clipPath id="clip0_448_8268">
<rect width="99.7352" height="98.8509" fill="white" transform="translate(0.5979 0.599243)"/>
</clipPath>
</defs>
</svg>
