<svg width="25" height="27" viewBox="0 0 25 27" fill="none" xmlns="http://www.w3.org/2000/svg">
<path d="M2.2984 9.73596C2.00025 9.73996 1.70429 9.68067 1.42742 9.56147C1.15055 9.44228 0.898198 9.26552 0.684767 9.04129C0.471336 8.81706 0.301011 8.54974 0.183518 8.25462C0.0660243 7.95949 0.00366479 7.64233 0 7.32124L0 2.49181C0.00366479 2.17073 0.0660243 1.85357 0.183518 1.55844C0.301011 1.26331 0.471336 0.995999 0.684767 0.771767C0.898198 0.547535 1.15055 0.370775 1.42742 0.251582C1.70429 0.132389 2.00025 0.0730978 2.2984 0.0770936H6.8952C7.19335 0.0730978 7.48931 0.132389 7.76618 0.251582C8.04305 0.370775 8.29541 0.547535 8.50884 0.771767C8.72227 0.995999 8.89259 1.26331 9.01009 1.55844C9.12758 1.85357 9.18994 2.17073 9.1936 2.49181V7.32124C9.18994 7.64233 9.12758 7.95949 9.01009 8.25462C8.89259 8.54974 8.72227 8.81706 8.50884 9.04129C8.29541 9.26552 8.04305 9.44228 7.76618 9.56147C7.48931 9.68067 7.19335 9.73996 6.8952 9.73596H2.2984Z" fill="#F1F9FF"/>
<path d="M2.2984 26.3971C2.00025 26.4011 1.70429 26.3418 1.42742 26.2226C1.15055 26.1034 0.898198 25.9267 0.684767 25.7024C0.471336 25.4782 0.301011 25.2109 0.183518 24.9157C0.0660243 24.6206 0.00366479 24.3035 0 23.9824L0 19.1529C0.00366479 18.8319 0.0660243 18.5147 0.183518 18.2196C0.301011 17.9244 0.471336 17.6571 0.684767 17.4329C0.898198 17.2087 1.15055 17.0319 1.42742 16.9127C1.70429 16.7935 2.00025 16.7342 2.2984 16.7382H6.8952C7.19335 16.7342 7.48931 16.7935 7.76618 16.9127C8.04305 17.0319 8.29541 17.2087 8.50884 17.4329C8.72227 17.6571 8.89259 17.9244 9.01009 18.2196C9.12758 18.5147 9.18994 18.8319 9.1936 19.1529V23.9824C9.18994 24.3035 9.12758 24.6206 9.01009 24.9157C8.89259 25.2109 8.72227 25.4782 8.50884 25.7024C8.29541 25.9267 8.04305 26.1034 7.76618 26.2226C7.48931 26.3418 7.19335 26.4011 6.8952 26.3971H2.2984Z" fill="#F1F9FF"/>
<path d="M17.9937 9.73596C17.6956 9.73996 17.3996 9.68067 17.1227 9.56147C16.8459 9.44228 16.5935 9.26552 16.3801 9.04129C16.1666 8.81706 15.9963 8.54974 15.8788 8.25462C15.7613 7.95949 15.699 7.64233 15.6953 7.32124V2.49181C15.699 2.17073 15.7613 1.85357 15.8788 1.55844C15.9963 1.26331 16.1666 0.995999 16.3801 0.771767C16.5935 0.547535 16.8459 0.370775 17.1227 0.251582C17.3996 0.132389 17.6956 0.0730978 17.9937 0.0770936H22.5905C22.8887 0.0730978 23.1846 0.132389 23.4615 0.251582C23.7384 0.370775 23.9907 0.547535 24.2041 0.771767C24.4176 0.995999 24.5879 1.26331 24.7054 1.55844C24.8229 1.85357 24.8853 2.17073 24.8889 2.49181V7.32124C24.8853 7.64233 24.8229 7.95949 24.7054 8.25462C24.5879 8.54974 24.4176 8.81706 24.2041 9.04129C23.9907 9.26552 23.7384 9.44228 23.4615 9.56147C23.1846 9.68067 22.8887 9.73996 22.5905 9.73596H17.9937Z" fill="#F1F9FF"/>
<path d="M13.6768 2.49182H11.4346V4.90655H13.6768V2.49182Z" fill="#F1F9FF"/>
<path d="M13.6768 7.32129H11.4346V9.73602H13.6768V7.32129Z" fill="#F1F9FF"/>
<path d="M13.6768 11.9088H11.4346V14.3235H13.6768V11.9088Z" fill="#F1F9FF"/>
<path d="M9.19244 11.9088H6.9502V14.3235H9.19244V11.9088Z" fill="#F1F9FF"/>
<path d="M4.48442 11.9088H2.24219V14.3235H4.48442V11.9088Z" fill="#F1F9FF"/>
<path d="M17.9376 11.9088H15.6953V14.3235H17.9376V11.9088Z" fill="#F1F9FF"/>
<path d="M22.6456 11.9088H20.4033V14.3235H22.6456V11.9088Z" fill="#F1F9FF"/>
<path d="M15.6954 14.3235H13.4531V16.7382H15.6954V14.3235Z" fill="#F1F9FF"/>
<path d="M20.4034 14.3235H18.1611V16.7382H20.4034V14.3235Z" fill="#F1F9FF"/>
<path d="M17.9376 16.7382H15.6953V19.1529H17.9376V16.7382Z" fill="#F1F9FF"/>
<path d="M13.6768 16.7382H11.4346V19.1529H13.6768V16.7382Z" fill="#F1F9FF"/>
<path d="M15.6954 19.153H13.4531V21.5677H15.6954V19.153Z" fill="#F1F9FF"/>
<path d="M17.9376 21.5676H15.6953V23.9824H17.9376V21.5676Z" fill="#F1F9FF"/>
<path d="M15.6954 23.9824H13.4531V26.3971H15.6954V23.9824Z" fill="#F1F9FF"/>
<path d="M24.8887 14.3235H22.6465V16.7382H24.8887V14.3235Z" fill="#F1F9FF"/>
<path d="M24.8887 19.153H22.6465V21.5677H24.8887V19.153Z" fill="#F1F9FF"/>
<path d="M20.4034 19.153H18.1611V21.5677H20.4034V19.153Z" fill="#F1F9FF"/>
<path d="M20.4034 23.9824H18.1611V26.3971H20.4034V23.9824Z" fill="#F1F9FF"/>
<path d="M22.6456 21.5676H20.4033V23.9824H22.6456V21.5676Z" fill="#F1F9FF"/>
<path d="M22.6456 16.7382H20.4033V19.1529H22.6456V16.7382Z" fill="#F1F9FF"/>
<path d="M13.6768 21.5676H11.4346V23.9824H13.6768V21.5676Z" fill="#F1F9FF"/>
</svg>
