<svg width="23" height="23" viewBox="0 0 23 23" fill="none" xmlns="http://www.w3.org/2000/svg">
<path d="M6.16883 5.70949L14.8698 2.80917C18.773 1.5081 20.9008 3.63589 19.5997 7.53913L16.6994 16.24C14.7478 22.0949 11.5561 22.0882 9.61122 16.24L9.02849 14.4782C8.8794 14.031 8.38472 13.5363 7.93747 13.3872L6.16882 12.7976C0.320759 10.8528 0.32076 7.65432 6.16883 5.70949Z" stroke="#1855AB" stroke-width="1.5" stroke-linecap="round" stroke-linejoin="round"/>
<path d="M8.67599 13.7325L12.3353 10.0732" stroke="#1855AB" stroke-width="1.5" stroke-linecap="round" stroke-linejoin="round"/>
</svg>
