<svg width="33" height="31" viewBox="0 0 33 31" fill="none" xmlns="http://www.w3.org/2000/svg">
<path d="M32.9028 3.22405C33.1522 1.49804 31.6205 0.13569 30.1881 0.809494L1.65932 14.2299C0.632144 14.7131 0.70728 16.3801 1.77262 16.7436L7.65598 18.7509C8.77885 19.1341 9.99474 18.936 10.9753 18.2102L24.2396 8.39152C24.6396 8.09543 25.0756 8.70478 24.7339 9.08228L15.1859 19.6295C14.2597 20.6526 14.4435 22.3863 15.5576 23.1348L26.2476 30.3173C27.4466 31.1229 28.989 30.3136 29.2133 28.7612L32.9028 3.22405Z" fill="url(#paint0_linear_6340_158884)"/>
<defs>
<linearGradient id="paint0_linear_6340_158884" x1="16.9297" y1="0.633789" x2="16.9297" y2="30.6338" gradientUnits="userSpaceOnUse">
<stop stop-color="#37BBFE"/>
<stop offset="1" stop-color="#007DBB"/>
</linearGradient>
</defs>
</svg>
