<svg width="83" height="82" viewBox="0 0 83 82" fill="none" xmlns="http://www.w3.org/2000/svg">
<g clip-path="url(#clip0_926_12954)">
<path d="M44.1963 10.6673L76.6423 66.3867C76.9412 66.9 77.0986 67.4824 77.0986 68.0751C77.0986 68.6679 76.9412 69.2502 76.6423 69.7636C76.3433 70.2769 75.9134 70.7032 75.3956 70.9996C74.8778 71.296 74.2905 71.4521 73.6926 71.4521H8.80069C8.20281 71.4521 7.61547 71.296 7.0977 70.9996C6.57992 70.7032 6.14996 70.2769 5.85103 69.7636C5.5521 69.2502 5.39473 68.6679 5.39473 68.0751C5.39473 67.4824 5.55211 66.9 5.85105 66.3867L38.297 10.6673C38.596 10.154 39.0259 9.72774 39.5437 9.43138C40.0615 9.13502 40.6488 8.979 41.2467 8.979C41.8445 8.979 42.4318 9.13502 42.9496 9.43138C43.4674 9.72774 43.8973 10.154 44.1963 10.6673ZM37.8406 54.5674V61.3213H44.6527V54.5674H37.8406ZM37.8406 30.9289V47.8136H44.6527V30.9289H37.8406Z" fill="#1855AB"/>
</g>
<defs>
<clipPath id="clip0_926_12954">
<rect width="81.745" height="81.0464" fill="white" transform="translate(0.374146 0.536621)"/>
</clipPath>
</defs>
</svg>
