<svg width="35" height="35" viewBox="0 0 35 35" fill="none" xmlns="http://www.w3.org/2000/svg">
<path d="M4.37502 4.375H30.625C31.0118 4.375 31.3827 4.52865 31.6562 4.80214C31.9297 5.07563 32.0834 5.44656 32.0834 5.83333V29.1667C32.0834 29.5534 31.9297 29.9244 31.6562 30.1979C31.3827 30.4714 31.0118 30.625 30.625 30.625H4.37502C3.98825 30.625 3.61731 30.4714 3.34382 30.1979C3.07033 29.9244 2.91669 29.5534 2.91669 29.1667V5.83333C2.91669 5.44656 3.07033 5.07563 3.34382 4.80214C3.61731 4.52865 3.98825 4.375 4.37502 4.375V4.375ZM5.83335 7.29167V27.7083H29.1667V7.29167H5.83335ZM12.3959 20.4167H20.4167C20.6101 20.4167 20.7955 20.3398 20.9323 20.2031C21.069 20.0664 21.1459 19.8809 21.1459 19.6875C21.1459 19.4941 21.069 19.3086 20.9323 19.1719C20.7955 19.0352 20.6101 18.9583 20.4167 18.9583H14.5834C13.6164 18.9583 12.6891 18.5742 12.0054 17.8905C11.3216 17.2068 10.9375 16.2794 10.9375 15.3125C10.9375 14.3456 11.3216 13.4182 12.0054 12.7345C12.6891 12.0508 13.6164 11.6667 14.5834 11.6667H16.0417V8.75H18.9584V11.6667H22.6042V14.5833H14.5834C14.39 14.5833 14.2045 14.6602 14.0678 14.7969C13.931 14.9336 13.8542 15.1191 13.8542 15.3125C13.8542 15.5059 13.931 15.6914 14.0678 15.8281C14.2045 15.9648 14.39 16.0417 14.5834 16.0417H20.4167C21.3836 16.0417 22.311 16.4258 22.9947 17.1095C23.6784 17.7932 24.0625 18.7206 24.0625 19.6875C24.0625 20.6544 23.6784 21.5818 22.9947 22.2655C22.311 22.9492 21.3836 23.3333 20.4167 23.3333H18.9584V26.25H16.0417V23.3333H12.3959V20.4167Z" fill="#1855AB"/>
</svg>
